/* XPM */
static const char * Logo_xpm[] = {
"48 48 678 2",
"  	c None",
". 	c #5C5F5A",
"+ 	c #575955",
"@ 	c #595C57",
"# 	c #5C5E5A",
"$ 	c #7B7C79",
"% 	c #F6F6F6",
"& 	c #8F918E",
"* 	c #585B57",
"= 	c #5D5E5C",
"- 	c #797A77",
"; 	c #F7F7F7",
"> 	c #FFFFFF",
", 	c #FDFDFD",
"' 	c #90918E",
") 	c #595A57",
"! 	c #747573",
"~ 	c #E8E8E8",
"{ 	c #747572",
"] 	c #686868",
"^ 	c #757575",
"/ 	c #EDEDED",
"( 	c #5A5C59",
"_ 	c #5D5D5D",
": 	c #595959",
"< 	c #6E6E6E",
"[ 	c #91928F",
"} 	c #585956",
"| 	c #5B5D59",
"1 	c #6D6F6B",
"2 	c #6E706C",
"3 	c #61625F",
"4 	c #737471",
"5 	c #676767",
"6 	c #555555",
"7 	c #515151",
"8 	c #ECECEC",
"9 	c #5A5C58",
"0 	c #595B57",
"a 	c #5A5D59",
"b 	c #ABACAA",
"c 	c #FAFAFA",
"d 	c #868785",
"e 	c #7C7D7A",
"f 	c #E6E6E6",
"g 	c #737373",
"h 	c #4D4D4D",
"i 	c #494949",
"j 	c #606060",
"k 	c #EBEBEB",
"l 	c #939491",
"m 	c #6A6B68",
"n 	c #D3D3D3",
"o 	c #90928F",
"p 	c #40413E",
"q 	c #5B5D5A",
"r 	c #ADAEAC",
"s 	c #6C6C6C",
"t 	c #454545",
"u 	c #414141",
"v 	c #EAEAEA",
"w 	c #CFCFCF",
"x 	c #949593",
"y 	c #41423F",
"z 	c #656565",
"A 	c #3D3D3D",
"B 	c #393939",
"C 	c #525252",
"D 	c #E9E9E9",
"E 	c #CBCBCB",
"F 	c #9E9F9E",
"G 	c #C0C0C0",
"H 	c #BFBFBF",
"I 	c #B9B9B9",
"J 	c #7A7B78",
"K 	c #5F5F5F",
"L 	c #353535",
"M 	c #313131",
"N 	c #4B4B4B",
"O 	c #626360",
"P 	c #8E8E8E",
"Q 	c #B3B3B3",
"R 	c #B6B6B6",
"S 	c #B8B8B8",
"T 	c #BABABA",
"U 	c #BCBCBC",
"V 	c #C1C1C1",
"W 	c #8C8D8C",
"X 	c #878786",
"Y 	c #5E5E5E",
"Z 	c #5A5B59",
"` 	c #787976",
" .	c #6B6B6B",
"..	c #D2D2D2",
"+.	c #585858",
"@.	c #2D2D2D",
"#.	c #292929",
"$.	c #444444",
"%.	c #E7E7E7",
"&.	c #565754",
"*.	c #424242",
"=.	c #484848",
"-.	c #4E4E4E",
";.	c #535353",
">.	c #828281",
",.	c #5B5C5A",
"'.	c #C7C7C7",
").	c #A2A2A2",
"!.	c #2C2C2C",
"~.	c #282828",
"{.	c #242424",
"].	c #202020",
"^.	c #858584",
"/.	c #5C5D5B",
"(.	c #C3C3C3",
"_.	c #F4F4F4",
":.	c #1C1C1C",
"<.	c #181818",
"[.	c #363636",
"}.	c #575855",
"|.	c #3C3C3C",
"1.	c #696A67",
"2.	c #7A7C79",
"3.	c #F8F8F8",
"4.	c #D5D5D5",
"5.	c #898989",
"6.	c #FCFCFC",
"7.	c #141414",
"8.	c #101010",
"9.	c #2F2F2F",
"0.	c #E5E5E5",
"a.	c #8D8F8C",
"b.	c #404040",
"c.	c #5D5F5B",
"d.	c #D6D6D5",
"e.	c #DADADA",
"f.	c #D0D0D0",
"g.	c #3B3B3B",
"h.	c #0C0C0C",
"i.	c #080808",
"j.	c #E4E4E4",
"k.	c #7D7D7D",
"l.	c #A6A6A6",
"m.	c #ABABAB",
"n.	c #8A8B89",
"o.	c #4E2700",
"p.	c #52371B",
"q.	c #5C452D",
"r.	c #564028",
"s.	c #8A735C",
"t.	c #947D66",
"u.	c #877059",
"v.	c #543D26",
"w.	c #8C755E",
"x.	c #432C15",
"y.	c #341D06",
"z.	c #331C05",
"A.	c #311A03",
"B.	c #301902",
"C.	c #2E1700",
"D.	c #3E2710",
"E.	c #937C65",
"F.	c #68523A",
"G.	c #58422A",
"H.	c #79624B",
"I.	c #927B64",
"J.	c #69523A",
"K.	c #492F13",
"L.	c #4C2600",
"M.	c #4D2600",
"N.	c #4F2702",
"O.	c #7B5733",
"P.	c #835F3C",
"Q.	c #825E3B",
"R.	c #825D3A",
"S.	c #815C39",
"T.	c #815C38",
"U.	c #805B38",
"V.	c #805A37",
"W.	c #805A36",
"X.	c #7F5935",
"Y.	c #7E5934",
"Z.	c #7E5833",
"`.	c #7D5732",
" +	c #7D5631",
".+	c #7D5530",
"++	c #7C542F",
"@+	c #7C532D",
"#+	c #7B532C",
"$+	c #7A522B",
"%+	c #7A512A",
"&+	c #795029",
"*+	c #784F27",
"=+	c #784E26",
"-+	c #774D25",
";+	c #764C23",
">+	c #764B22",
",+	c #754A21",
"'+	c #74491F",
")+	c #74481E",
"!+	c #73471C",
"~+	c #72461B",
"{+	c #71451A",
"]+	c #714418",
"^+	c #704317",
"/+	c #6F4115",
"(+	c #6F4014",
"_+	c #6E3F12",
":+	c #6D3E11",
"<+	c #6C3D0F",
"[+	c #6C3C0E",
"}+	c #6B3B0C",
"|+	c #67380A",
"1+	c #502701",
"2+	c #67421C",
"3+	c #BF9E7E",
"4+	c #BE9D7D",
"5+	c #BE9C7C",
"6+	c #BD9B7A",
"7+	c #BC9A79",
"8+	c #BB9977",
"9+	c #BB9776",
"0+	c #BA9674",
"a+	c #B99572",
"b+	c #B89370",
"c+	c #B7926E",
"d+	c #B6906C",
"e+	c #B58F6A",
"f+	c #B48D68",
"g+	c #B38B65",
"h+	c #B18A63",
"i+	c #B08861",
"j+	c #AF865E",
"k+	c #AE845C",
"l+	c #AC8259",
"m+	c #AB8057",
"n+	c #AA7E54",
"o+	c #A97C51",
"p+	c #A77A4F",
"q+	c #A6784C",
"r+	c #A47649",
"s+	c #A37446",
"t+	c #A27243",
"u+	c #A07040",
"v+	c #9F6D3D",
"w+	c #9D6B3A",
"x+	c #9C6937",
"y+	c #9A6634",
"z+	c #996431",
"A+	c #97622E",
"B+	c #955F2B",
"C+	c #945D28",
"D+	c #925B25",
"E+	c #915822",
"F+	c #8F561E",
"G+	c #8E531B",
"H+	c #8C5118",
"I+	c #8A4F15",
"J+	c #633306",
"K+	c #4E2600",
"L+	c #6A4420",
"M+	c #C7A98D",
"N+	c #D8C4B1",
"O+	c #D8C5B2",
"P+	c #D8C4B0",
"Q+	c #D7C2AF",
"R+	c #D7C2AE",
"S+	c #D6C1AD",
"T+	c #D6C0AC",
"U+	c #D5C0AB",
"V+	c #D4BFAA",
"W+	c #D4BEA8",
"X+	c #D3BDA7",
"Y+	c #D3BCA6",
"Z+	c #D2BBA5",
"`+	c #D1BAA3",
" @	c #D0B9A2",
".@	c #D0B8A0",
"+@	c #CFB79F",
"@@	c #CEB69D",
"#@	c #CEB49C",
"$@	c #CDB39B",
"%@	c #CCB299",
"&@	c #CBB197",
"*@	c #CBB096",
"=@	c #CAAF94",
"-@	c #C9AE93",
";@	c #C8AC91",
">@	c #C7AB8F",
",@	c #C6AA8E",
"'@	c #C6A98C",
")@	c #C5A78A",
"!@	c #C1A182",
"~@	c #BF9F7F",
"{@	c #BF9D7E",
"]@	c #90571F",
"^@	c #8E541C",
"/@	c #8C5219",
"(@	c #8B4F16",
"_@	c #894D12",
":@	c #653406",
"<@	c #69441F",
"[@	c #BB9876",
"}@	c #BA9775",
"|@	c #CDB29A",
"1@	c #DCCBBA",
"2@	c #D7C3B0",
"3@	c #CDB39A",
"4@	c #C9AD93",
"5@	c #C8AD92",
"6@	c #C4A689",
"7@	c #C3A688",
"8@	c #C2A385",
"9@	c #BF9F80",
"0@	c #B6926D",
"a@	c #B38C66",
"b@	c #AD845C",
"c@	c #A97D53",
"d@	c #A67A4E",
"e@	c #A5784B",
"f@	c #A17243",
"g@	c #9F6E3F",
"h@	c #9F6C3C",
"i@	c #98632F",
"j@	c #96602C",
"k@	c #955E29",
"l@	c #935C26",
"m@	c #925A23",
"n@	c #905720",
"o@	c #8E551D",
"p@	c #8D521A",
"q@	c #8B5017",
"r@	c #8A4E14",
"s@	c #884B10",
"t@	c #643405",
"u@	c #69431E",
"v@	c #B89471",
"w@	c #D2BBA6",
"x@	c #B58F6B",
"y@	c #B48E69",
"z@	c #B38D67",
"A@	c #B38B66",
"B@	c #B28A64",
"C@	c #B18962",
"D@	c #B08760",
"E@	c #AD8259",
"F@	c #AB8157",
"G@	c #AA7F55",
"H@	c #A87B50",
"I@	c #A7794E",
"J@	c #A07041",
"K@	c #9F6E3E",
"L@	c #9D6C3B",
"M@	c #9C6938",
"N@	c #9B6736",
"O@	c #996533",
"P@	c #986330",
"Q@	c #96612D",
"R@	c #955F2A",
"S@	c #935C27",
"T@	c #925A24",
"U@	c #905821",
"V@	c #8F551E",
"W@	c #8D531B",
"X@	c #874D13",
"Y@	c #894C11",
"Z@	c #874A0E",
"`@	c #643304",
" #	c #68421D",
".#	c #B6916D",
"+#	c #C3A587",
"@#	c #B48E68",
"##	c #B38C67",
"$#	c #B28B65",
"%#	c #AE855C",
"&#	c #AD835A",
"*#	c #AC8158",
"=#	c #AB8056",
"-#	c #A97C52",
";#	c #A87B4F",
">#	c #A6794D",
",#	c #A5774B",
"'#	c #A47548",
")#	c #A37346",
"!#	c #A17143",
"~#	c #945D27",
"{#	c #915821",
"]#	c #8E541B",
"^#	c #874C14",
"/#	c #7E460F",
"(#	c #874A0F",
"_#	c #86480C",
":#	c #633204",
"<#	c #68411C",
"[#	c #B58E6A",
"}#	c #AE855D",
"|#	c #AD835B",
"1#	c #A87C51",
"2#	c #A77A4E",
"3#	c #A5774A",
"4#	c #A47547",
"5#	c #A27345",
"6#	c #A06F40",
"7#	c #9D6B3B",
"8#	c #97612D",
"9#	c #8F561F",
"0#	c #844A12",
"a#	c #7D440D",
"b#	c #86480D",
"c#	c #854609",
"d#	c #633202",
"e#	c #805D2F",
"f#	c #866035",
"g#	c #B38E63",
"h#	c #B08B5F",
"i#	c #B99974",
"j#	c #AE8C64",
"k#	c #A68055",
"l#	c #A27C51",
"m#	c #9F784D",
"n#	c #A0794F",
"o#	c #AC835A",
"p#	c #AB7F55",
"q#	c #AA7E53",
"r#	c #A7794D",
"s#	c #A37447",
"t#	c #A27244",
"u#	c #A17142",
"v#	c #A06F3F",
"w#	c #9E6D3D",
"x#	c #9B6735",
"y#	c #915922",
"z#	c #8D5219",
"A#	c #8B5016",
"B#	c #8A4E13",
"C#	c #82480E",
"D#	c #7D420B",
"E#	c #85470A",
"F#	c #844407",
"G#	c #623102",
"H#	c #BA9D6C",
"I#	c #BEA177",
"J#	c #B99B70",
"K#	c #B29265",
"L#	c #AA895C",
"M#	c #A27E51",
"N#	c #9A7547",
"O#	c #936B3D",
"P#	c #8A6233",
"Q#	c #7F5729",
"R#	c #734E23",
"S#	c #765026",
"T#	c #A77D53",
"U#	c #A97D52",
"V#	c #9E6C3C",
"W#	c #9A6735",
"X#	c #996532",
"Y#	c #884C11",
"Z#	c #81450D",
"`#	c #7B4109",
" $	c #844508",
".$	c #824205",
"+$	c #623001",
"@$	c #BFA278",
"#$	c #CDB49B",
"$$	c #C5A78B",
"%$	c #A47648",
"&$	c #7B430C",
"*$	c #613A12",
"=$	c #875D34",
"-$	c #A6794C",
";$	c #A27344",
">$	c #9C6A39",
",$	c #9B6837",
"'$	c #8E541D",
")$	c #7F420A",
"!$	c #7A3F06",
"~$	c #834305",
"{$	c #814102",
"]$	c #623000",
"^$	c #B5956B",
"/$	c #C5A88B",
"($	c #AC7F42",
"_$	c #D6B02D",
":$	c #D4AA10",
"<$	c #9E6713",
"[$	c #834406",
"}$	c #803F00",
"|$	c #A37547",
"1$	c #9B6836",
"2$	c #97622F",
"3$	c #955E2A",
"4$	c #7C4108",
"5$	c #793D05",
"6$	c #814103",
"7$	c #AB8A5E",
"8$	c #BD9B7B",
"9$	c #F2DB68",
"0$	c #FFED76",
"a$	c #F4D001",
"b$	c #874800",
"c$	c #643200",
"d$	c #A37345",
"e$	c #A17042",
"f$	c #9F6D3E",
"g$	c #9D6A3A",
"h$	c #986430",
"i$	c #844609",
"j$	c #7B4005",
"k$	c #793C02",
"l$	c #A17F53",
"m$	c #A06F37",
"n$	c #FFE853",
"o$	c #FFFEFA",
"p$	c #FFEB67",
"q$	c #FFDD00",
"r$	c #9C6200",
"s$	c #754B21",
"t$	c #945E29",
"u$	c #7A3D03",
"v$	c #773A00",
"w$	c #967247",
"x$	c #A57649",
"y$	c #E7C005",
"z$	c #FFDD02",
"A$	c #F4CF00",
"B$	c #986431",
"C$	c #935B25",
"D$	c #915923",
"E$	c #824203",
"F$	c #773B01",
"G$	c #8C673B",
"H$	c #A5764A",
"I$	c #8F5206",
"J$	c #C69500",
"K$	c #CC9D00",
"L$	c #945900",
"M$	c #5F2F00",
"N$	c #73481E",
"O$	c #9B6937",
"P$	c #9A6633",
"Q$	c #96602B",
"R$	c #8F551D",
"S$	c #8C5119",
"T$	c #804001",
"U$	c #763A00",
"V$	c #825B30",
"W$	c #844507",
"X$	c #703700",
"Y$	c #4F2700",
"Z$	c #72471C",
"`$	c #996432",
" %	c #935B26",
".%	c #8D531A",
"+%	c #8B4F15",
"@%	c #894D13",
"#%	c #87490E",
"$%	c #86480B",
"%%	c #803F01",
"&%	c #6F471C",
"*%	c #71461A",
"=%	c #6A3C0F",
"-%	c #623306",
";%	c #5E2E00",
">%	c #5D2E00",
",%	c #562A00",
"'%	c #794B20",
")%	c #8C5017",
"!%	c #87490D",
"~%	c #85470B",
"{%	c #834306",
"]%	c #824103",
"^%	c #753900",
"/%	c #5D370E",
"(%	c #552F08",
"_%	c #4E2701",
":%	c #562E06",
"<%	c #956231",
"[%	c #894C12",
"}%	c #884A0F",
"|%	c #86490D",
"1%	c #743900",
"2%	c #4D2500",
"3%	c #572E08",
"4%	c #73461C",
"5%	c #72461C",
"6%	c #72451B",
"7%	c #72451A",
"8%	c #724519",
"9%	c #7C4E20",
"0%	c #966230",
"a%	c #97612E",
"b%	c #945C27",
"c%	c #8C5117",
"d%	c #85460A",
"e%	c #824305",
"f%	c #733900",
"g%	c #61370E",
"h%	c #86470B",
"i%	c #834407",
"j%	c #824204",
"k%	c #814002",
"l%	c #723800",
"m%	c #61360D",
"n%	c #713700",
"o%	c #60360C",
"p%	c #884B0F",
"q%	c #713800",
"r%	c #60350B",
"s%	c #814001",
"t%	c #5F340A",
"u%	c #90561F",
"v%	c #7E3F00",
"w%	c #5F3309",
"x%	c #8A4E15",
"y%	c #7D3E00",
"z%	c #5E3308",
"A%	c #8D541C",
"B%	c #8B521A",
"C%	c #8A5019",
"D%	c #895018",
"E%	c #884E17",
"F%	c #874D15",
"G%	c #854C13",
"H%	c #854B12",
"I%	c #834910",
"J%	c #83490F",
"K%	c #82460D",
"L%	c #80440C",
"M%	c #7F440A",
"N%	c #7E4209",
"O%	c #7B4208",
"P%	c #7B3F06",
"Q%	c #7A3E04",
"R%	c #793D02",
"S%	c #783B02",
"T%	c #733800",
"U%	c #5D3107",
"V%	c #854C15",
"W%	c #7E4712",
"X%	c #7D4611",
"Y%	c #7D4510",
"Z%	c #7D450F",
"`%	c #7D440E",
" &	c #7C430D",
".&	c #7B420C",
"+&	c #7B410A",
"@&	c #7A410A",
"#&	c #794008",
"$&	c #793E07",
"%&	c #783D06",
"&&	c #783D04",
"*&	c #773C03",
"=&	c #763A02",
"-&	c #7C3D00",
";&	c #613000",
">&	c #502801",
",&	c #784410",
"'&	c #7F4812",
")&	c #7E4812",
"!&	c #7D4711",
"~&	c #7D4610",
"{&	c #7D460F",
"]&	c #7D460E",
"^&	c #7C450E",
"/&	c #7C440D",
"(&	c #7B420A",
"_&	c #7A420A",
":&	c #794109",
"<&	c #794007",
"[&	c #793F06",
"}&	c #783E05",
"|&	c #773E04",
"1&	c #773C02",
"2&	c #763B02",
"3&	c #753A00",
"4&	c #542A00",
"5&	c #4D2700",
"                                                                                                ",
"                                        . + @                                                   ",
"                                      # $ % & *                                                 ",
"                                    = - ; > , ' )                                               ",
"                                  = ! ~ > > > , ' )                                             ",
"                                = { ] ^ / > > > , ' )                                           ",
"                              ( { ] _ : < / > > > , [ }                                         ",
"            | 1 2 2 2 2 2 1 3 4 5 _ : 6 7 ] 8 > > > , ' 9 3 2 2 2 2 2 2 2 2 2 2 2 0             ",
"          a b > > > > > c d e f g : 6 7 h i j k > > > , l m n > > > > > > > > > > o p           ",
"          q r > > > > c d e ; > 8 s 7 h i t u : v > > > , l m w > > > > > > > > > x y           ",
"          q r > > > c d e ; > > > k z i t u A B C D > > > , l m E > > > > > > > > x y           ",
"          q F G H I ! J ; > > % > > v K u A B L M N ~ > > > , [ O P Q R S T U H V W y           ",
"          q X Y : Z ` ; > > %  ...> > D +.B L M @.#.$.%.> > > , ' &.L *.=.-.;.: K >.y           ",
"          q X _ ,.` ; > > > > '.)./ > > ~ 7 M !.~.{.].A %.> > > , ' &.B =.-.;.: K >.y           ",
"          q ^./.` ; > > > > > > (.P _.> > %.i ~.{.].:.<.[.f > > > , ' }.|.h ;.: K >.y           ",
"          q 1.2.3.> > > > > > > > 4.5.6.> > %.*.].:.<.7.8.9.0.> > > , a.}.b.C : K >.y           ",
"          q c.d.> > > > > > > > > > e.f.'.> > f g.<.7.8.h.i.~.j.> > > , & 3 k.l.m.n.y           ",
"        o.p.q.r.s.t.t.t.t.t.t.t.t.t.t.u.v.w.t.t.s.x.y.z.A.B.C.D.s.t.t.t.E.F.G.H.I.J.K.L.M.      ",
"    N.O.P.Q.Q.R.S.T.U.V.W.X.Y.Z.`. +.+++@+#+$+%+&+*+=+-+;+>+,+'+)+!+~+{+]+^+/+(+_+:+<+[+}+|+1+  ",
"    2+3+4+5+6+7+8+9+0+a+b+c+d+e+f+g+h+i+j+k+l+m+n+o+p+q+r+s+t+u+v+w+x+y+z+A+B+C+D+E+F+G+H+I+J+K+",
"    L+6+7+M+N+O+P+P+Q+R+S+T+U+V+W+X+Y+Z+`+ @.@+@@@#@$@%@&@*@=@-@;@>@,@'@)@!@~@{@l+]@^@/@(@_@:@M.",
"    <@[@}@|@1@2@#@3@%@4@5@>@6@7@8@9@3+6+0+a+0@f+a@i+b@l+c@d@e@f@g@h@y+i@j@k@l@m@n@o@p@q@r@s@t@M.",
"    u@a+v@*@w@b+d+x@y@z@A@B@C@D@j+k+E@F@G@c@H@I@e@r+s+t+J@K@L@M@N@O@P@Q@R@S@T@U@V@W@q@X@Y@Z@`@M.",
"     #c+.#-@+#e+@###$#B@C@D@j+%#&#*#=#n+-#;#>#,#'#)#!#u+K@L@M@N@O@P@Q@R@~#T@{#F+]#H+^#/#(#_#:#M.",
"    <#x@[#>@3+a@$#h+C@D@j+}#|#l+m+G@c@1#2#q+3#4#5#!#6#v+7#M@N@O@P@8#R@C+D+E+9#^@/@(@0#a#b#c#d#M.",
"  e#f#g#h#i#j#k#l#m#n#o#|#l+F@p#q#o+;#r#e@r+s#t#u#v#w#w+M@x#O@P@8#R@C+D+y#9#^@z#A#B#C#D#E#F#G#M.",
"H#I#J#K#L#M#N#O#P#Q#R#S#T#p#n+U#H@2#q+3#'#)#t+J@g@V#w+x+W#X#P@Q@R@C+D+y#]@^@p@q@r@Y#Z#`# $.$+$M.",
"@$#$$$6+[#l+%$M@~#q@&$*$=$U#H@2#-$,#r+s#;$u#6#K@V#>$,$y+X#i@Q@R@~#D+y#]@'$p@q@r@Y@Z@)$!$~${$]$M.",
"^$/$6+e+l+($_$:$<$[$}$t@-+2#>#,#r+|$5#f@J@g@w#7#M@1$y+z+2$j@3$~#D+y#]@'$p@q@r@Y@Z@_#4$5$6$}$]$M.",
"7$8$e+E@r+9$> 0$a$b$}$c$;+,#r+|$d$t#e$6#f$V#g$x+W#O@h$A+j@k@S@T@E+9#^@p@q@r@Y@(#_#i$j$k$}$}$]$M.",
"l$e+&#r+m$n$o$p$q$r$}$c$s$s#d$t#u#6#K@V#w+M@1$y+X#P@8#B+t$l@T@{#9#^@z#q@r@Y@(#_#i$[$u$v$}$}$]$M.",
"w$&#x$>$C+y$z$q$A$b$}$c$'+f@e$6#K@w#7#>$,$W#O@B$2$j@R@C+C$D$U@F+^@/@A#r@Y@(#_#c#[$E$F$v$}$}$]$M.",
"G$H$>$C+H+I$J$K$L$}$}$M$N$6#K@V#7#>$O$x#P$z+i@8#Q$t$S@D+y#n@R$W@S$A#B#Y#Z@_#i$[$E$T$U$v$}$}$]$M.",
"V$>$t$H+W$}$}$}$}$}$X$Y$Z$V#w+>$,$x#y+`$P@A+j@R@C+ %T@{#9#o@.%H++%@%s@#%$%i$[$E$%%}$U$v$}$}$]$M.",
"&%*%=%-%;%;%;%;%>%,%M.M.'%M@,$W#P$`$P@A+j@B+t$S@T@y#n@F+^@z#)%I+_@s@!%~% ${%]%}$}$}$^%v$}$}$]$M.",
"/%(%_%M.M.M.M.M.M.M.M.:%<%y+O@z+P@A+j@B+t$S@D+D$U@9#o@W@S$A#r@[%}%|%E# $~$6$}$}$}$}$1%v$}$}$]$M.",
"  2%3%4%5%4%6%7%{+8%9%0%X#B$i@a%j@B+t$b%C$T@E+n@V@^@p@c%+%@%Y#Z@_#d%F#e%{$}$}$}$}$}$f%v$}$}$]$M.",
"    g%M@,$1$W#y+O@X#B$P@A+Q@j@R@t$S@C$T@E+n@F+^@.%H+A#r@[%s@!%h%i$i%j%k%}$}$}$}$}$}$l%v$}$}$]$M.",
"    m%y+O@X#B$P@i@A+Q@j@B+k@C+l@D+m@E+n@F+^@W@/@q@I+@%Y#(#_#E# ${%E$T$}$}$}$}$}$}$}$n%v$}$}$]$M.",
"    o%P@2$A+8#j@Q$R@k@C+S@C$T@D${#n@F+^@W@/@q@+%B#Y@p%!%h%c#i%e%{$}$}$}$}$}$}$}$}$}$q%v$}$}$]$M.",
"    r%j@B+R@k@C+~#l@C$T@D$E+n@9#R$^@.%/@q@+%r@[%s@#%_#d% ${%j%s%}$}$}$}$}$}$}$}$}$}$n%v$}$}$]$M.",
"    t%C+S@l@C$D+T@D$E+n@u%F+o@G+p@H+q@+%B#[%s@Z@_#E# $[$j%{$}$}$}$}$}$}$}$}$}$}$}$v%n%v$}$}$]$M.",
"    w%T@D$y#E+U@n@9#V@'$]#.%/@c%A#x%@%Y@s@Z@_#~%i$i%e%]%s%}$}$}$}$}$}$}$}$}$}$}$v%y%n%v$}$}$]$M.",
"    z%n@u%F+V@o@A%B%C%D%E%F%G%H%I%J%K%L%M%N%O%P%Q%R%S%^%^%^%^%1%f%f%f%T%n%l%n%n%n%n%n%v$}$}$]$M.",
"    U%^@G+.%p@/@V%W%W%X%Y%Z%`% &.&+&@&#&$&%&&&*&=&^%^%^%^%^%^%^%^%^%^%^%^%^%^%^%^%^%U$-&}$}$;&M.",
"    >&,&'&)&W%!&~&{&]&^&/&&$(&_&:&<&[&}&|&1&2&3&3&3&3&3&3&3&3&3&3&3&3&3&3&3&3&3&3&3&3&3&3&l%4&5&",
"    M.M.M.M.M.M.M.M.M.M.M.M.M.M.M.M.M.M.M.M.M.M.M.M.M.M.M.M.M.M.M.M.M.M.M.M.M.M.M.M.M.M.M.M.M.L.",
"      M.M.M.M.M.M.M.M.M.M.M.M.M.M.M.M.M.M.M.M.M.M.M.M.M.M.M.M.M.M.M.M.M.M.M.M.M.M.M.M.M.M.2%M.  "};
