<?xml version="1.0" encoding="UTF-8" standalone="no"?>
<svg
   xmlns:a="http://ns.adobe.com/AdobeSVGViewerExtensions/3.0/"
   xmlns:dc="http://purl.org/dc/elements/1.1/"
   xmlns:cc="http://creativecommons.org/ns#"
   xmlns:rdf="http://www.w3.org/1999/02/22-rdf-syntax-ns#"
   xmlns:svg="http://www.w3.org/2000/svg"
   xmlns="http://www.w3.org/2000/svg"
   xmlns:xlink="http://www.w3.org/1999/xlink"
   xmlns:sodipodi="http://sodipodi.sourceforge.net/DTD/sodipodi-0.dtd"
   xmlns:inkscape="http://www.inkscape.org/namespaces/inkscape"
   xml:space="preserve"
   id="svg1966"
   viewBox="0 0 1024 941.59127"
   height="1024"
   width="1024"
   version="1.0"
   inkscape:version="0.91 r13725"
   sodipodi:docname="wallet-open.svg"
   inkscape:export-filename="/home/igor/Personale/Documenti/Programmazione/bilancio/websites/branding_lp/brand.png"
   inkscape:export-xdpi="16.879999"
   inkscape:export-ydpi="16.879999"><sodipodi:namedview
     pagecolor="#ffffff"
     bordercolor="#666666"
     borderopacity="1"
     objecttolerance="10"
     gridtolerance="10"
     guidetolerance="10"
     inkscape:pageopacity="0"
     inkscape:pageshadow="2"
     inkscape:window-width="1301"
     inkscape:window-height="744"
     id="namedview52"
     showgrid="false"
     inkscape:zoom="0.47408296"
     inkscape:cx="-23.511556"
     inkscape:cy="482.12166"
     inkscape:window-x="65"
     inkscape:window-y="24"
     inkscape:window-maximized="1"
     inkscape:current-layer="svg1966" /><metadata
     id="metadata53"><rdf:RDF><cc:Work
         rdf:about=""><dc:format>image/svg+xml</dc:format><dc:type
           rdf:resource="http://purl.org/dc/dcmitype/StillImage" /><dc:title /></cc:Work></rdf:RDF></metadata><defs
     id="defs2020"><linearGradient
       id="linearGradient16538"><stop
         id="stop16540"
         offset="0"
         style="stop-color:#646464;stop-opacity:1" /><stop
         id="stop16546"
         offset="0.5"
         style="stop-color:black;stop-opacity:1" /><stop
         id="stop16542"
         offset="1"
         style="stop-color:#646464;stop-opacity:1" /></linearGradient><linearGradient
       gradientTransform="matrix(1.039286,0,0,0.99999998,-3.2857357,-3.5409023)"
       gradientUnits="userSpaceOnUse"
       id="XMLID_5_"
       y2="65.651802"
       x2="57.486698"
       y1="-8.6369371"
       x1="-39.000408"><stop
         id="stop1984"
         offset="0"
         style="stop-color:#4d2600;stop-opacity:1" /><stop
         id="stop1986"
         offset="1"
         style="stop-color:#4d2600;stop-opacity:1" /><a:midPointStop
         style="stop-color:#B3925D"
         offset="0" /><a:midPointStop
         style="stop-color:#B3925D"
         offset="0.5" /><a:midPointStop
         style="stop-color:#4D2600"
         offset="1" /></linearGradient><radialGradient
       gradientUnits="userSpaceOnUse"
       id="XMLID_6_"
       fy="0.91799998"
       fx="-13"
       r="116.4002"
       cy="0.91799998"
       cx="-13"><stop
         id="stop1991"
         offset="0"
         style="stop-color:white;stop-opacity:1" /><stop
         id="stop1993"
         offset="1"
         style="stop-color:#803f00;stop-opacity:1" /><a:midPointStop
         style="stop-color:#FFFFFF"
         offset="0" /><a:midPointStop
         style="stop-color:#FFFFFF"
         offset="0.5" /><a:midPointStop
         style="stop-color:#803F00"
         offset="1" /></radialGradient><linearGradient
       gradientTransform="translate(-0.99999996,-3.5409023)"
       gradientUnits="userSpaceOnUse"
       id="XMLID_7_"
       y2="57.161098"
       x2="17.070499"
       y1="45.680698"
       x1="9.0341997"><stop
         id="stop2002"
         offset="0"
         style="stop-color:#b3925d;stop-opacity:1" /><stop
         id="stop2004"
         offset="1"
         style="stop-color:#4d2600;stop-opacity:1" /><a:midPointStop
         style="stop-color:#B3925D"
         offset="0" /><a:midPointStop
         style="stop-color:#B3925D"
         offset="0.5" /><a:midPointStop
         style="stop-color:#4D2600"
         offset="1" /></linearGradient><linearGradient
       gradientTransform="translate(-0.99999996,-3.5409023)"
       gradientUnits="userSpaceOnUse"
       id="XMLID_8_"
       y2="54.365101"
       x2="17.0242"
       y1="40.276901"
       x1="2.7363"><stop
         id="stop2009"
         offset="0"
         style="stop-color:white;stop-opacity:1" /><stop
         id="stop2011"
         offset="1"
         style="stop-color:#803f00;stop-opacity:1" /><a:midPointStop
         style="stop-color:#FFFFFF"
         offset="0" /><a:midPointStop
         style="stop-color:#FFFFFF"
         offset="0.5" /><a:midPointStop
         style="stop-color:#803F00"
         offset="1" /></linearGradient><radialGradient
       gradientTransform="matrix(1.039286,0,0,0.99999998,-3.2857357,-3.5409023)"
       gradientUnits="userSpaceOnUse"
       xlink:href="#XMLID_6_"
       id="radialGradient2066"
       fy="-20.74012"
       fx="-7.4307694"
       r="116.4002"
       cy="-20.74012"
       cx="-7.4307694" /><linearGradient
       gradientTransform="matrix(0.08696072,-3.278551e-6,-3.6883702e-6,0.09783082,-27.566739,-24.332434)"
       gradientUnits="userSpaceOnUse"
       xlink:href="#linearGradient16538"
       id="linearGradient22367"
       y2="17.85955"
       x2="77.728523"
       y1="17.394068"
       x1="13.764423" /><linearGradient
       gradientTransform="matrix(0.08696409,0,0,0.09782722,-0.76663726,-10.853737)"
       gradientUnits="userSpaceOnUse"
       xlink:href="#linearGradient16538"
       id="linearGradient22404"
       y2="17.85955"
       x2="77.728523"
       y1="17.394068"
       x1="13.764423" /></defs><g
     id="g22393"
     transform="matrix(11.499,0,0,11.499867,6.9645614,126.97573)"><rect
       id="rect21366"
       style="opacity:0.3;fill:#555753;fill-opacity:1;fill-rule:nonzero;stroke:#000000;stroke-width:1.99999952;stroke-linecap:round;stroke-linejoin:round;stroke-miterlimit:10;stroke-dasharray:none;stroke-opacity:1"
       y="-0.12736392"
       x="11.877528"
       ry="0.17391498"
       rx="0.17392819"
       height="40.878559"
       width="66" /><rect
       id="rect21368"
       style="fill:#ffffff;fill-opacity:1;fill-rule:nonzero;stroke:#555753;stroke-width:2;stroke-linecap:round;stroke-linejoin:round;stroke-miterlimit:10;stroke-dasharray:none;stroke-opacity:1"
       y="-0.24885464"
       x="10.877528"
       ry="0.17391506"
       rx="0.17392819"
       height="40"
       width="66" /><rect
       id="rect21370"
       style="fill:url(#linearGradient22404);fill-opacity:1;fill-rule:nonzero;stroke:none;stroke-width:2;stroke-linecap:round;stroke-linejoin:round;stroke-miterlimit:10;stroke-dasharray:none;stroke-opacity:1"
       y="7.7511458"
       x="11.877528"
       height="9"
       width="64" /><flowRoot
       xml:space="preserve"
       id="flowRoot21372"
       style="font-size:9.96131706px;text-align:center;text-anchor:middle"
       transform="matrix(0.301165,2.666075e-8,-2.666075e-8,0.301165,22.18287,54.08809)"><flowRegion
         id="flowRegion21374"><rect
           id="rect21376"
           style="font-size:9.96131706px;text-align:center;text-anchor:middle"
           y="-107.56835"
           x="-10.22906"
           height="57.546783"
           width="158.51956" /></flowRegion><flowPara
         id="flowPara21378">Nuno Marco Fernandes Pinheiro </flowPara><flowPara
         id="flowPara21380" /><flowPara
         id="flowPara21382">OxyCard - 2006</flowPara></flowRoot></g><g
     id="g22371"
     transform="matrix(8.1310345,-8.1316362,8.131023,8.1316477,62.206181,405.84956)"><rect
       id="rect21344"
       style="opacity:0.3;fill:#555753;fill-opacity:1;fill-rule:nonzero;stroke:#000000;stroke-width:2.0009501;stroke-linecap:round;stroke-linejoin:round;stroke-miterlimit:10;stroke-dasharray:none;stroke-opacity:1"
       transform="matrix(0.02208084,0.999756,-0.999768,-0.02153446,0,0)"
       y="-50.321495"
       x="-0.2863313"
       ry="0.17386304"
       rx="0.17384575"
       height="40.916786"
       width="65.834488" /><rect
       id="rect21346"
       style="fill:#ffffff;fill-opacity:1;fill-rule:nonzero;stroke:#555753;stroke-width:1.99999833;stroke-linecap:round;stroke-linejoin:round;stroke-miterlimit:10;stroke-dasharray:none;stroke-opacity:1"
       transform="matrix(-1.366025e-6,1,-1,-1.366025e-6,0,0)"
       y="-50.059082"
       x="-0.93389237"
       ry="0.17392802"
       rx="0.17391491"
       height="39.999966"
       width="65.999947" /><rect
       id="rect21348"
       style="fill:url(#linearGradient22367);fill-opacity:1;fill-rule:nonzero;stroke:none;stroke-width:2;stroke-linecap:round;stroke-linejoin:round;stroke-miterlimit:10;stroke-dasharray:none;stroke-opacity:1"
       transform="matrix(-1.366025e-6,1,-1,-1.366025e-6,0,0)"
       y="-42.059097"
       x="0.066107638"
       height="8.9999924"
       width="63.999947" /><flowRoot
       xml:space="preserve"
       id="flowRoot21350"
       style="font-weight:bold;font-size:9.96131706px;text-align:center;text-anchor:middle"
       transform="matrix(-2.2345e-7,0.351294,-0.301164,-2.606441e-7,-3.277838,3.666453)"><flowRegion
         id="flowRegion21352"><rect
           id="rect21354"
           style="font-weight:bold;font-size:9.96131706px;text-align:center;text-anchor:middle"
           y="-107.56835"
           x="-10.22906"
           height="57.546783"
           width="158.51956" /></flowRegion><flowPara
         id="flowPara21356">Nuno Marco Fernandes Pinheiro </flowPara><flowPara
         id="flowPara21358" /><flowPara
         id="flowPara21360">OxyCard - 2006</flowPara></flowRoot></g><path
     id="path1988"
     style="fill:url(#XMLID_5_)"
     d="m 106.66333,338.30876 c -36.258596,0 -65.776946,28.2437 -65.776946,62.96179 l 0,518.05666 c 0,34.73108 29.51835,62.97457 65.776946,62.97457 l 848.39572,0 c 36.28245,0 65.78885,-28.24349 65.78885,-62.97457 l 0,-518.05666 c 0,-34.71809 -29.5064,-62.96179 -65.78885,-62.96179 l -848.39572,0 z"
     inkscape:connector-curvature="0" /><path
     id="path1995"
     style="fill:url(#radialGradient2066)"
     d="m 84.632638,361.30852 c -10.945485,0 -19.844749,8.62486 -19.844749,19.20472 l 0,536.57196 c 0,10.59263 8.899264,19.21579 19.844749,19.21579 l 880.518302,0 c 10.93335,0 19.84473,-8.62316 19.84473,-19.21579 l 0,-536.57196 c 0,-10.59136 -8.89924,-19.20472 -19.84473,-19.20472 l -880.518302,0 0,0 z"
     inkscape:connector-curvature="0" /><path
     id="path1997"
     style="opacity:0.3;fill:#4d2600;fill-opacity:1"
     d="m 926.88452,897.69694 c 0,8.62528 -7.61232,15.60471 -16.99551,15.60471 l -713.44393,0 c -9.38318,0 -16.99551,-6.97943 -16.99551,-15.60471 l 710.06321,-21.76867 20.37623,-429.80838 c 9.37169,0 16.99551,6.99199 16.99551,15.60535 l 0,435.9717 z"
     inkscape:connector-curvature="0" /><path
     id="path1999"
     style="opacity:0.50568183;fill:#ffffff"
     d="m 121.95456,411.4133 c 0,-8.62486 7.61235,-15.60535 16.99553,-15.60535 l 713.45541,0 c 9.37171,0 16.99553,6.98049 16.99553,15.60535 l -692.64282,15.96199 c 0,0 -33.66543,9.27297 -35.4739,36.07714 -1.88645,27.96052 -16.03562,287.50613 -16.03562,278.88085 l -3.28263,-330.91998 -0.0115,0 z"
     inkscape:connector-curvature="0" /><path
     id="path2006"
     style="fill:url(#XMLID_7_)"
     d="m 271.44156,689.68733 c 0,28.23285 -24.71136,51.1172 -55.19521,51.1172 l -165.585591,0 c -30.483845,0 -43.6961976,-22.88435 -43.6961976,-51.1172 l 0,-127.7866 c 0,-28.22007 13.2123526,-51.09399 43.6961976,-51.09399 l 165.585591,0 c 30.48385,0 55.19521,22.88457 55.19521,51.09399 l 0,127.7866 z"
     inkscape:connector-curvature="0" /><path
     id="path2013"
     style="fill:url(#XMLID_8_)"
     d="m 248.44355,648.80507 c 0,25.40317 -27.03414,45.99867 -60.36974,45.99867 l -166.735496,0 c 0.47076,3.69837 0.08304,-161.18482 0,-160.99746 l 166.735496,0 c 33.3356,0 60.36974,20.5955 60.36974,45.99867 l 0,69.00012 z"
     inkscape:connector-curvature="0" /><ellipse
     id="circle2015"
     style="fill:#ffdd00"
     cy="614.3067"
     cx="156.45155"
     rx="45.996002"
     ry="45.999466" /><ellipse
     id="circle2017"
     style="fill:#ffffff;fill-opacity:1"
     cy="602.80444"
     cx="144.95258"
     rx="22.998001"
     ry="22.999733" /></svg>