/* XPM */
static const char * debtnew24_xpm[] = {
"24 24 294 2",
"  	c None",
". 	c #74B56F",
"+ 	c #7EBB78",
"@ 	c #6FB26B",
"# 	c #B6E3AF",
"$ 	c #A4D99D",
"% 	c #75B670",
"& 	c #73B46D",
"* 	c #BAE5B1",
"= 	c #9ED895",
"- 	c #9AD492",
"; 	c #B7E4AF",
"> 	c #72B46F",
", 	c #B9E5B1",
"' 	c #9DD795",
") 	c #A0D898",
"! 	c #9ED795",
"~ 	c #B7E5B0",
"{ 	c #71B36D",
"] 	c #BAE4B2",
"^ 	c #A2D99A",
"/ 	c #8FCC87",
"( 	c #A0D998",
"_ 	c #B8E5B1",
": 	c #6FB26A",
"< 	c #79B873",
"[ 	c #BBE7B4",
"} 	c #94D38C",
"| 	c #9BD592",
"1 	c #A3DA9B",
"2 	c #A1D899",
"3 	c #8BC983",
"4 	c #74BA6E",
"5 	c #B8E5B0",
"6 	c #73B46F",
"7 	c #7DBB78",
"8 	c #A0D79A",
"9 	c #A5D3A0",
"0 	c #CEE7CB",
"a 	c #C3E3C0",
"b 	c #94CB8E",
"c 	c #97D38E",
"d 	c #8CCA84",
"e 	c #A4DA9D",
"f 	c #7BBA76",
"g 	c #7EBC79",
"h 	c #9ED697",
"i 	c #E7F3E5",
"j 	c #F8FCF7",
"k 	c #ECF8EA",
"l 	c #E5F4E2",
"m 	c #EAF7E7",
"n 	c #AED9AA",
"o 	c #98D28F",
"p 	c #BAE5B3",
"q 	c #66AC61",
"r 	c #80BE7B",
"s 	c #B4E2AD",
"t 	c #BADDB6",
"u 	c #F4FAF3",
"v 	c #E9F6E7",
"w 	c #BEDDBA",
"x 	c #C2E0BE",
"y 	c #D8F0D5",
"z 	c #D9F0D5",
"A 	c #90CB89",
"B 	c #9DD794",
"C 	c #BDE7B6",
"D 	c #519F4D",
"E 	c #83BF7E",
"F 	c #B7E3B0",
"G 	c #88CB80",
"H 	c #ECF5EA",
"I 	c #EEF9EB",
"J 	c #B3D7B0",
"K 	c #AFD6AC",
"L 	c #AAD4A7",
"M 	c #BCDEB8",
"N 	c #CAE9C4",
"O 	c #A8D5A2",
"P 	c #9FD897",
"Q 	c #BCE6B6",
"R 	c #52A14D",
"S 	c #A5D7A1",
"T 	c #81BF7A",
"U 	c #81BE7C",
"V 	c #B6E3AD",
"W 	c #8ACC82",
"X 	c #EAF5E8",
"Y 	c #E7F7E4",
"Z 	c #AED5AA",
"` 	c #AED6AB",
" .	c #ACD5A9",
"..	c #B6DBB1",
"+.	c #C3E5BE",
"@.	c #A6D59F",
"#.	c #9BD693",
"$.	c #BBE6B4",
"%.	c #59A555",
"&.	c #A8DD9F",
"*.	c #5BA656",
"=.	c #85C17F",
"-.	c #AFDDA9",
";.	c #8AC484",
">.	c #C1E2BD",
",.	c #DEF1DA",
"'.	c #D1EBCD",
").	c #ACD4A9",
"!.	c #AFD6AA",
"~.	c #C3E6BD",
"{.	c #BFE4B9",
"].	c #8ECA88",
"^.	c #BEE8B7",
"/.	c #5CA857",
"(.	c #A8DDA0",
"_.	c #9ED794",
":.	c #9ACF95",
"<.	c #8FB785",
"[.	c #89B47C",
"}.	c #B1E0AA",
"|.	c #89C781",
"1.	c #DCEFD5",
"2.	c #D0EBCB",
"3.	c #CBEAC6",
"4.	c #C4E6BE",
"5.	c #BDE3B7",
"6.	c #A6D79E",
"7.	c #AEDEA7",
"8.	c #5FA85B",
"9.	c #A8DC9F",
"0.	c #AADEA2",
"a.	c #C4EBBF",
"b.	c #4B9B45",
"c.	c #939494",
"d.	c #909091",
"e.	c #A1BB91",
"f.	c #A5C194",
"g.	c #A9C384",
"h.	c #AEBE7A",
"i.	c #ADB871",
"j.	c #90985B",
"k.	c #9ABB72",
"l.	c #B9D5A0",
"m.	c #C6DFAE",
"n.	c #B4DEAE",
"o.	c #95CD8E",
"p.	c #ABDCA5",
"q.	c #63AB5E",
"r.	c #9CD693",
"s.	c #AFE1A8",
"t.	c #B3E0AD",
"u.	c #838587",
"v.	c #ACADAE",
"w.	c #E3E4E5",
"x.	c #CDD1D1",
"y.	c #D1B87B",
"z.	c #E2C483",
"A.	c #E8CD92",
"B.	c #F0D7A3",
"C.	c #EFD39C",
"D.	c #9CD694",
"E.	c #99CB85",
"F.	c #9FC47A",
"G.	c #BDDEA7",
"H.	c #73A65B",
"I.	c #A2CC8A",
"J.	c #B5D99F",
"K.	c #B0D39D",
"L.	c #6EB168",
"M.	c #6D6E71",
"N.	c #9A9B9D",
"O.	c #EBEBEC",
"P.	c #D1D4D7",
"Q.	c #E9D49E",
"R.	c #F6D68C",
"S.	c #F3D080",
"T.	c #F2CC74",
"U.	c #F4CF7B",
"V.	c #F5D78E",
"W.	c #F8DEA3",
"X.	c #F1E1AC",
"Y.	c #ECCD8C",
"Z.	c #E2BB70",
"`.	c #DFB05B",
" +	c #EDC87A",
".+	c #F6D58C",
"++	c #EAC378",
"@+	c #7B5222",
"#+	c #696A6D",
"$+	c #8F9091",
"%+	c #E5E6E7",
"&+	c #CDCFD4",
"*+	c #E4C57C",
"=+	c #F2C869",
"-+	c #F0C869",
";+	c #F2C96A",
">+	c #F1C969",
",+	c #F3C869",
"'+	c #F1CA70",
")+	c #F3D07D",
"!+	c #F4D488",
"~+	c #F2D698",
"{+	c #DEB463",
"]+	c #D8A546",
"^+	c #D9A950",
"/+	c #D4A453",
"(+	c #DAAE5F",
"_+	c #E3BB72",
":+	c #D9AB56",
"<+	c #656668",
"[+	c #848486",
"}+	c #E0E1E3",
"|+	c #C9CBD1",
"1+	c #E4C274",
"2+	c #F0C560",
"3+	c #F0C460",
"4+	c #EABC58",
"5+	c #D49E3C",
"6+	c #DCA745",
"7+	c #DFAC49",
"8+	c #E4B350",
"9+	c #E9BA56",
"0+	c #EABE61",
"a+	c #DBAB52",
"b+	c #E8C582",
"c+	c #F1D392",
"d+	c #F2D28C",
"e+	c #F2D082",
"f+	c #F3CE7A",
"g+	c #DFAF51",
"h+	c #606163",
"i+	c #757677",
"j+	c #DADBDC",
"k+	c #C3C7CB",
"l+	c #DEBA67",
"m+	c #EEBF53",
"n+	c #EEC053",
"o+	c #EDC053",
"p+	c #EDBE52",
"q+	c #E6B44A",
"r+	c #E1AB41",
"s+	c #DBA43C",
"t+	c #D69E37",
"u+	c #D19833",
"v+	c #D29934",
"w+	c #E2AE45",
"x+	c #EFBF51",
"y+	c #ECBD4F",
"z+	c #E8B74C",
"A+	c #D8A641",
"B+	c #AD7E2B",
"C+	c #805C1F",
"D+	c #5C5D5F",
"E+	c #68696B",
"F+	c #D5D6D8",
"G+	c #BFC3C8",
"H+	c #BDA05D",
"I+	c #D9A740",
"J+	c #E0AD42",
"K+	c #E6B445",
"L+	c #ECBB48",
"M+	c #EEBC49",
"N+	c #EEBD49",
"O+	c #ECBA48",
"P+	c #EAB544",
"Q+	c #E6B040",
"R+	c #E8B342",
"S+	c #EAB746",
"T+	c #E4B043",
"U+	c #D19E3A",
"V+	c #916A25",
"W+	c #5A4115",
"X+	c #57585B",
"Y+	c #5B5C5E",
"Z+	c #B1B3B5",
"`+	c #A0A4A9",
" @	c #628055",
".@	c #465627",
"+@	c #7A591E",
"@@	c #AE8933",
"#@	c #D69E36",
"$@	c #DDA639",
"%@	c #E5AF3C",
"&@	c #EDB93F",
"*@	c #EBB73E",
"=@	c #DFA93B",
"-@	c #CE9935",
";@	c #9D7227",
">@	c #4E4E4E",
",@	c #4C4C4B",
"'@	c #886221",
")@	c #9B7025",
"!@	c #9F7526",
"~@	c #664A19",
"                                                ",
"                                                ",
"                            . +                 ",
"                          @ # $ %               ",
"                        & * = - ; >             ",
"                      % , ' ) ) ! ~ {           ",
"                    % ] ' ) ) ^ / ( _ :         ",
"                  < [ } | 1 2 3 4 / ' 5 6       ",
"                7 8 9 0 a b c ^ d ^ ) - e f     ",
"              g h i j k l m n o 2 ) ) ! p q     ",
"            r s t u v w x y z A 1 ) B C D       ",
"          E F G H I J K L M N O P B Q R S       ",
"      T U V ' W X Y Z `  ...+.@.#.$.%.&.~ *.    ",
"  =.-.;.s ' ) - >.,.'.).!.~.{.].^./.(.) _.:.    ",
"  <.[.}.= ) ) ^ |.1.2.3.4.5.6.7.8.9.P ' 0.a.b.  ",
"  c.d.e.f.g.h.i.j.k.l.m.n.o.p.q.&.r.s.t..       ",
"  u.v.w.x.y.z.A.B.C.D.E.F.G.H.I.J.K.L.          ",
"  M.N.O.P.Q.R.S.T.U.V.W.X.Y.Z.`. +.+++@+        ",
"  #+$+%+&+*+=+-+-+;+>+,+'+)+!+~+{+]+^+/+(+_+:+  ",
"  <+[+}+|+1+2+3+3+4+5+6+7+8+9+0+a+b+c+d+e+f+g+  ",
"  h+i+j+k+l+m+n+o+p+q+r+s+t+u+v+w+x+y+z+A+B+C+  ",
"  D+E+F+G+H+I+J+K+L+M+N+O+P+Q+R+S+T+U+V+W+      ",
"  X+Y+Z+`+ @.@+@@@#@$@%@&@&@*@=@-@;@            ",
"  >@,@                '@)@!@)@~@                "};
