/* XPM */
static const char * debtremove24_xpm[] = {
"24 24 195 2",
"  	c None",
". 	c #000000",
"+ 	c #74B56F",
"@ 	c #7EBB78",
"# 	c #6FB26B",
"$ 	c #B6E3AF",
"% 	c #A4D99D",
"& 	c #73B46D",
"* 	c #BAE5B1",
"= 	c #9ED895",
"- 	c #75B670",
"; 	c #B9E5B1",
"> 	c #B7E5B0",
", 	c #71B36D",
"' 	c #8FCC87",
") 	c #A0D998",
"! 	c #B8E5B1",
"~ 	c #6FB26A",
"{ 	c #8BC983",
"] 	c #74BA6E",
"^ 	c #9DD795",
"/ 	c #B8E5B0",
"( 	c #73B46F",
"_ 	c #97D38E",
": 	c #A2D99A",
"< 	c #8CCA84",
"[ 	c #A0D898",
"} 	c #9AD492",
"| 	c #A4DA9D",
"1 	c #7BBA76",
"2 	c #7EBC79",
"3 	c #AED9AA",
"4 	c #98D28F",
"5 	c #A1D899",
"6 	c #9ED795",
"7 	c #BAE5B3",
"8 	c #66AC61",
"9 	c #80BE7B",
"0 	c #90CB89",
"a 	c #A3DA9B",
"b 	c #9DD794",
"c 	c #BDE7B6",
"d 	c #519F4D",
"e 	c #83BF7E",
"f 	c #AFD6AC",
"g 	c #9FD897",
"h 	c #BCE6B6",
"i 	c #52A14D",
"j 	c #A5D7A1",
"k 	c #81BF7A",
"l 	c #81BE7C",
"m 	c #AED5AA",
"n 	c #AED6AB",
"o 	c #ACD5A9",
"p 	c #BBE6B4",
"q 	c #59A555",
"r 	c #A8DD9F",
"s 	c #5BA656",
"t 	c #85C17F",
"u 	c #AFDDA9",
"v 	c #8AC484",
"w 	c #DEF1DA",
"x 	c #D1EBCD",
"y 	c #ACD4A9",
"z 	c #AFD6AA",
"A 	c #C3E6BD",
"B 	c #5CA857",
"C 	c #A8DDA0",
"D 	c #9ED794",
"E 	c #9ACF95",
"F 	c #8FB785",
"G 	c #89B47C",
"H 	c #89C781",
"I 	c #DCEFD5",
"J 	c #D0EBCB",
"K 	c #CBEAC6",
"L 	c #C4E6BE",
"M 	c #BDE3B7",
"N 	c #A6D79E",
"O 	c #AADEA2",
"P 	c #C4EBBF",
"Q 	c #4B9B45",
"R 	c #939494",
"S 	c #90985B",
"T 	c #9ABB72",
"U 	c #B9D5A0",
"V 	c #C6DFAE",
"W 	c #B4DEAE",
"X 	c #95CD8E",
"Y 	c #ABDCA5",
"Z 	c #63AB5E",
"` 	c #AFE1A8",
" .	c #B3E0AD",
"..	c #838587",
"+.	c #E8CD92",
"@.	c #F0D7A3",
"#.	c #EFD39C",
"$.	c #9CD694",
"%.	c #99CB85",
"&.	c #9FC47A",
"*.	c #BDDEA7",
"=.	c #73A65B",
"-.	c #A2CC8A",
";.	c #F6D68C",
">.	c #F3D080",
",.	c #F2CC74",
"'.	c #F4CF7B",
").	c #F5D78E",
"!.	c #F8DEA3",
"~.	c #F1E1AC",
"{.	c #ECCD8C",
"].	c #E2BB70",
"^.	c #DFB05B",
"/.	c #EDC87A",
"(.	c #7B5222",
"_.	c #F2C869",
":.	c #F0C869",
"<.	c #F2C96A",
"[.	c #F1C969",
"}.	c #F3C869",
"|.	c #F1CA70",
"1.	c #F3D07D",
"2.	c #F4D488",
"3.	c #F2D698",
"4.	c #DEB463",
"5.	c #D8A546",
"6.	c #DAAE5F",
"7.	c #E3BB72",
"8.	c #D9AB56",
"9.	c #F0C560",
"0.	c #F0C460",
"a.	c #EABC58",
"b.	c #D49E3C",
"c.	c #DCA745",
"d.	c #DFAC49",
"e.	c #E4B350",
"f.	c #E9BA56",
"g.	c #EABE61",
"h.	c #DBAB52",
"i.	c #E8C582",
"j.	c #F2D082",
"k.	c #F3CE7A",
"l.	c #DFAF51",
"m.	c #EEBF53",
"n.	c #EEC053",
"o.	c #EDC053",
"p.	c #EDBE52",
"q.	c #E6B44A",
"r.	c #E1AB41",
"s.	c #DBA43C",
"t.	c #D69E37",
"u.	c #D19833",
"v.	c #D29934",
"w.	c #E2AE45",
"x.	c #EFBF51",
"y.	c #ECBD4F",
"z.	c #D8A641",
"A.	c #AD7E2B",
"B.	c #805C1F",
"C.	c #5C5D5F",
"D.	c #BDA05D",
"E.	c #D9A740",
"F.	c #E0AD42",
"G.	c #E6B445",
"H.	c #ECBB48",
"I.	c #EEBC49",
"J.	c #EEBD49",
"K.	c #ECBA48",
"L.	c #EAB544",
"M.	c #E6B040",
"N.	c #E8B342",
"O.	c #EAB746",
"P.	c #E4B043",
"Q.	c #D19E3A",
"R.	c #916A25",
"S.	c #5A4115",
"T.	c #57585B",
"U.	c #628055",
"V.	c #465627",
"W.	c #7A591E",
"X.	c #AE8933",
"Y.	c #D69E36",
"Z.	c #DDA639",
"`.	c #E5AF3C",
" +	c #EDB93F",
".+	c #EBB73E",
"++	c #DFA93B",
"@+	c #CE9935",
"#+	c #9D7227",
"$+	c #4E4E4E",
"%+	c #4C4C4B",
"&+	c #886221",
"*+	c #9B7025",
"=+	c #9F7526",
"-+	c #664A19",
"    . . .                                 . . . ",
"  . . . .                               . . . . ",
". . . . . . .               + @     . . . .     ",
". . . . . . . .           # $ % . . . .         ",
"  . . . . . . . . .     & * = . . .             ",
"      . . . . . . . . - ; . . . . > ,           ",
"          . . . . . . . . . . . ' ) ! ~         ",
"              . . . . . . . . { ] ' ^ / (       ",
"                . . . . . . _ : < : [ } | 1     ",
"              2 . . . . . . 3 4 5 [ [ 6 7 8     ",
"            9 . . . . . . . . 0 a [ b c d       ",
"          e . . . . . f . . . . g b h i j       ",
"      k l . . . . . m n o . . . . p q r > s     ",
"  t u v . . . . . w x y z A . . . B C [ D E     ",
"  F G . . . . . H I J K L M N . . . g ^ O P Q   ",
"  R . . . . . . S T U V W X Y Z . . `  .+       ",
"  ... . . . . +.@.#.$.%.&.*.=.-.. . .           ",
"  . . . . . ;.>.,.'.).!.~.{.].^./.. . (.        ",
"  . . . . . _.:.:.<.[.}.|.1.2.3.4.5.. . 6.7.8.  ",
"  . . . . . 9.0.0.a.b.c.d.e.f.g.h.i.. . j.k.l.  ",
"  . . . . . m.n.o.p.q.r.s.t.u.v.w.x.y.. z.A.B.  ",
"  C.. . . D.E.F.G.H.I.J.K.L.M.N.O.P.Q.R.S.      ",
"  T.. . . U.V.W.X.Y.Z.`. + +.+++@+#+            ",
"  $+%+                &+*+=+*+-+                "};
