/* XPM */
static const char * delete_bin_line_xpm[] = {
"24 24 2 1",
" 	c None",
".	c #000000",
"                        ",
"                        ",
"       ..........       ",
"       ..........       ",
"       ..      ..       ",
"       ..      ..       ",
"  ....................  ",
"  ....................  ",
"    ..            ..    ",
"    ..            ..    ",
"    ..            ..    ",
"    ..   ..  ..   ..    ",
"    ..   ..  ..   ..    ",
"    ..   ..  ..   ..    ",
"    ..   ..  ..   ..    ",
"    ..   ..  ..   ..    ",
"    ..   ..  ..   ..    ",
"    ..            ..    ",
"    ..            ..    ",
"    ..            ..    ",
"    ................    ",
"    ................    ",
"                        ",
"                        "};
