/* XPM */
static const char * objectgiveback24_xpm[] = {
"24 24 167 2",
"  	c None",
". 	c #41790A",
"+ 	c #58961C",
"@ 	c #5D9C21",
"# 	c #5B9920",
"$ 	c #508C17",
"% 	c #548E1B",
"& 	c #82CE37",
"* 	c #72C422",
"= 	c #6EC21C",
"- 	c #69BB19",
"; 	c #69B61E",
"> 	c #6CB02C",
", 	c #4F8818",
"' 	c #0D0800",
") 	c #000000",
"! 	c #6CAE2C",
"~ 	c #6DC11B",
"{ 	c #5FAC14",
"] 	c #5FAD14",
"^ 	c #60B014",
"/ 	c #58A50F",
"( 	c #5CA317",
"_ 	c #538C1C",
": 	c #271800",
"< 	c #76BC33",
"[ 	c #6ABD18",
"} 	c #529A0E",
"| 	c #488A09",
"1 	c #498C09",
"2 	c #4F980A",
"3 	c #559914",
"4 	c #4B8315",
"5 	c #010000",
"6 	c #3B7504",
"7 	c #69AC2A",
"8 	c #6DB724",
"9 	c #5BA910",
"0 	c #529C0B",
"a 	c #448605",
"b 	c #3F7F04",
"c 	c #488413",
"d 	c #6D7C09",
"e 	c #1A0400",
"f 	c #C6901C",
"g 	c #0B0800",
"h 	c #662701",
"i 	c #72882F",
"j 	c #509419",
"k 	c #54921B",
"l 	c #4E8E19",
"m 	c #528A1D",
"n 	c #87802E",
"o 	c #CFAE24",
"p 	c #DAB03D",
"q 	c #EDA834",
"r 	c #EBB440",
"s 	c #F4A532",
"t 	c #FAC655",
"u 	c #F4D25D",
"v 	c #F8CF5C",
"w 	c #FACA59",
"x 	c #F5C653",
"y 	c #F0B440",
"z 	c #EB9926",
"A 	c #EA9A26",
"B 	c #D59E2A",
"C 	c #F2A733",
"D 	c #F5C753",
"E 	c #EEB33F",
"F 	c #F2AE3A",
"G 	c #F6CA56",
"H 	c #C08915",
"I 	c #F3B13D",
"J 	c #F3B844",
"K 	c #F4BF4B",
"L 	c #CF9926",
"M 	c #EFA632",
"N 	c #EFA531",
"O 	c #F1B440",
"P 	c #D39E2A",
"Q 	c #EB9F2B",
"R 	c #EB9C28",
"S 	c #EDA430",
"T 	c #D19C28",
"U 	c #EA9C28",
"V 	c #E99A26",
"W 	c #CD9824",
"X 	c #E99F2B",
"Y 	c #E79824",
"Z 	c #E89824",
"` 	c #E79723",
" .	c #E69622",
"..	c #E69521",
"+.	c #E49420",
"@.	c #E3931F",
"#.	c #8D661C",
"$.	c #B9820E",
"%.	c #EBA935",
"&.	c #E59420",
"*.	c #E59521",
"=.	c #E2921E",
"-.	c #E2901D",
";.	c #8B550C",
">.	c #D29C28",
",.	c #DAA32F",
"'.	c #E2901C",
").	c #E3921E",
"!.	c #E2911D",
"~.	c #E1901C",
"{.	c #E18F1C",
"].	c #E08E1A",
"^.	c #0D0801",
"/.	c #8B560C",
"(.	c #E09824",
"_.	c #C28B17",
":.	c #C08612",
"<.	c #E7A733",
"[.	c #E08F1C",
"}.	c #E08F1B",
"|.	c #DF8D19",
"1.	c #DE8D19",
"2.	c #DE8C18",
"3.	c #DA8713",
"4.	c #D88511",
"5.	c #D59C28",
"6.	c #C48F1B",
"7.	c #E6A531",
"8.	c #DE8B17",
"9.	c #DD8B17",
"0.	c #DD8A16",
"a.	c #DC8915",
"b.	c #D98613",
"c.	c #D7830F",
"d.	c #DEA32F",
"e.	c #BA820E",
"f.	c #C08A16",
"g.	c #E1A733",
"h.	c #DE911D",
"i.	c #DC8814",
"j.	c #DB8814",
"k.	c #DA8814",
"l.	c #D98713",
"m.	c #1B1002",
"n.	c #D78410",
"o.	c #D98915",
"p.	c #DDA32F",
"q.	c #B98511",
"r.	c #A7820E",
"s.	c #CC9622",
"t.	c #DEA12D",
"u.	c #E19D29",
"v.	c #DC901C",
"w.	c #D98814",
"x.	c #D88713",
"y.	c #DC931F",
"z.	c #DF9F2B",
"A.	c #CF9824",
"B.	c #AA820E",
"C.	c #A5820E",
"D.	c #B3830F",
"E.	c #C8911D",
"F.	c #CD9723",
"G.	c #CF9A26",
"H.	c #CD9622",
"I.	c #C38C18",
"J.	c #AC820E",
"                                                ",
"                                                ",
"    . + @ # $                                   ",
"  % & * = - ; > ,       '   )                   ",
"    ! ~ { ] ^ / ( _     :   ) )                 ",
"      < [ } | 1 2 3 4   5   ) ) )               ",
"      6 7 8 9 0 a b c d e f ) ) ) g             ",
"        h i j k l m n o p q ) ) ) ) )           ",
"        r s t u v w x y z A ) ) ) ) ) )         ",
"      B C D ) ) ) ) ) ) ) ) ) ) ) ) ) ) ) )     ",
"      E F G ) ) ) ) ) ) ) ) ) ) ) ) ) ) ) ) )   ",
"    H I J K ) ) ) ) ) ) ) ) ) ) ) ) ) ) ) ) ) ) ",
"    L M N O ) ) ) ) ) ) ) ) ) ) ) ) ) ) ) ) ) ) ",
"    P Q R S ) ) ) ) ) ) ) ) ) ) ) ) ) ) ) ) )   ",
"    T U V A ) ) ) ) ) ) ) ) ) ) ) ) ) ) ) )     ",
"    W X Y Z Y Z Y `  ...+.@.) ) ) ) ) ) #.      ",
"    $.%.&.......*.+.+.@.=.-.) ) ) ) ) ;.>.      ",
"      ,.'.).=.=.=.=.!.~.{.].) ) ) ^./.(._.      ",
"      :.<.].{.{.[.}.].|.1.2.) ) ^.3.4.5.        ",
"        6.7.8.1.2.2.8.9.0.a.) ^.b.c.d.e.        ",
"          f.g.h.i.a.a.j.k.l.m.n.o.p.q.          ",
"            r.s.t.u.v.w.n.x.y.z.A.B.            ",
"                C.D.E.F.G.H.I.J.                ",
"                                                "};
