/* XPM */
/* http://www.farmbooking.com/it/css/images/red_minus-24.png */
static const char * redminus24_xpm[] = {
"24 24 181 2",
"  	c None",
". 	c #CB0000",
"+ 	c #D80000",
"@ 	c #DF0000",
"# 	c #DE0000",
"$ 	c #D60000",
"% 	c #CA0000",
"& 	c #E70800",
"* 	c #F87800",
"= 	c #FFA500",
"- 	c #FFB500",
"; 	c #FFB800",
"> 	c #FFB100",
", 	c #FF9F00",
"' 	c #FE8500",
") 	c #F65200",
"! 	c #E30000",
"~ 	c #C90000",
"{ 	c #D70200",
"] 	c #FC5E00",
"^ 	c #FFD600",
"/ 	c #FEC600",
"( 	c #FFBB00",
"_ 	c #FFB400",
": 	c #FFAD00",
"< 	c #FF9D00",
"[ 	c #FF9600",
"} 	c #FE9100",
"| 	c #FF8C00",
"1 	c #F83000",
"2 	c #D30000",
"3 	c #E00000",
"4 	c #FFA600",
"5 	c #FFC200",
"6 	c #FFBA00",
"7 	c #FFB200",
"8 	c #FFAB00",
"9 	c #FFA400",
"0 	c #FF9C00",
"a 	c #FF9500",
"b 	c #FF8E00",
"c 	c #FF8600",
"d 	c #FF7E00",
"e 	c #FF7700",
"f 	c #FF7000",
"g 	c #FF4E00",
"h 	c #D70000",
"i 	c #DB0400",
"j 	c #FFA100",
"k 	c #FEBC00",
"l 	c #FFAA00",
"m 	c #FFA200",
"n 	c #FF9B00",
"o 	c #FF9400",
"p 	c #FF8400",
"q 	c #FF7D00",
"r 	c #FF7500",
"s 	c #FF6E00",
"t 	c #FF6700",
"u 	c #FF5F00",
"v 	c #FF5900",
"w 	c #FF3C00",
"x 	c #D40000",
"y 	c #CF0000",
"z 	c #FF6200",
"A 	c #FFB000",
"B 	c #FFA900",
"C 	c #FF9900",
"D 	c #FF9200",
"E 	c #FF8B00",
"F 	c #FF8300",
"G 	c #FF7C00",
"H 	c #FF6C00",
"I 	c #FF6500",
"J 	c #FF5E00",
"K 	c #FF5600",
"L 	c #FF4F00",
"M 	c #FF4800",
"N 	c #FF4000",
"O 	c #FB1800",
"P 	c #F01B00",
"Q 	c #FFA000",
"R 	c #FF9800",
"S 	c #FF9100",
"T 	c #FF8A00",
"U 	c #FF8200",
"V 	c #FF7A00",
"W 	c #FF7300",
"X 	c #FF6400",
"Y 	c #FF5D00",
"Z 	c #FF5500",
"` 	c #FF4700",
" .	c #FF3F00",
"..	c #FF3700",
"+.	c #FF3000",
"@.	c #FF2A00",
"#.	c #E80100",
"$.	c #FD6F00",
"%.	c #FE9800",
"&.	c #FF9000",
"*.	c #FF8800",
"=.	c #FF7400",
"-.	c #FF4400",
";.	c #FF2B00",
">.	c #FF2200",
",.	c #FF2900",
"'.	c #FF3600",
").	c #FF3900",
"!.	c #FF3100",
"~.	c #FF1E00",
"{.	c #FE1400",
"].	c #F90500",
"^.	c #DB0000",
"/.	c #FF8700",
"(.	c #FF8000",
"_.	c #FF6F00",
":.	c #FF2C00",
"<.	c #FF0000",
"[.	c #D00000",
"}.	c #EF0600",
"|.	c #FF362E",
"1.	c #FF8A8A",
"2.	c #FF8686",
"3.	c #FF8B8B",
"4.	c #FF1717",
"5.	c #C70000",
"6.	c #F91F00",
"7.	c #FF7100",
"8.	c #FF0500",
"9.	c #FF4445",
"0.	c #FFFFFF",
"a.	c #FF2020",
"b.	c #EB0000",
"c.	c #FA2300",
"d.	c #FF6300",
"e.	c #FF1700",
"f.	c #FF4444",
"g.	c #ED0000",
"h.	c #F51800",
"i.	c #FF2D00",
"j.	c #FFFBFB",
"k.	c #E80000",
"l.	c #E60300",
"m.	c #FF0700",
"n.	c #FF0808",
"o.	c #FF1313",
"p.	c #FF1414",
"q.	c #FF0404",
"r.	c #D90000",
"s.	c #FE0200",
"t.	c #F70000",
"u.	c #F20C00",
"v.	c #FF0400",
"w.	c #FF4A00",
"x.	c #D50000",
"y.	c #F10000",
"z.	c #FE0000",
"A.	c #FF1100",
"B.	c #FE6500",
"C.	c #E70C00",
"D.	c #C80000",
"E.	c #CC0000",
"F.	c #FD0000",
"G.	c #FF8500",
"H.	c #F70F00",
"I.	c #CD0000",
"J.	c #F30000",
"K.	c #FF1300",
"L.	c #ED1400",
"M.	c #E20000",
"N.	c #F90000",
"O.	c #FF0D00",
"P.	c #FE2100",
"Q.	c #FF5C00",
"R.	c #F74D00",
"S.	c #DC0000",
"T.	c #F10200",
"U.	c #FF2100",
"V.	c #FF3A00",
"W.	c #FE2B00",
"X.	c #EE0300",
"                                                ",
"                . . + @ # $ . .                 ",
"            % & * = - ; > , ' ) ! ~             ",
"        ~ { ] ^ / ( _ : = < [ } | 1 2           ",
"      ~ 3 4 5 6 7 8 9 0 a b c d e f g h         ",
"    ~ i j k > l m n o | p q r s t u v w x       ",
"    y z A B j C D E F G r H I J K L M N O %     ",
"  . P A Q R S T U V W H X Y Z g `  ...+.@.#.    ",
"  % $.%.&.*.p =.-.;.>.>.,.+.'.)...!.,.~.{.].%   ",
"  ^.F /.(._.:.<.<.<.<.<.<.<.<.<.<.<.<.<.<.<.[.  ",
"  }.U e H |.1.2.2.2.2.2.2.2.2.2.2.3.4.<.<.<.!   ",
"5.6.7.u 8.9.0.0.0.0.0.0.0.0.0.0.0.0.a.<.<.<.b.  ",
"5.c.d.e.<.f.0.0.0.0.0.0.0.0.0.0.0.0.a.<.<.<.g.  ",
"  h.i.<.<.f.0.j.j.j.j.j.j.j.j.j.j.0.a.<.<.<.k.  ",
"  l.m.<.<.n.o.o.o.o.o.o.o.o.o.o.o.p.q.<.<.<.r.  ",
"  [.<.<.<.<.<.<.<.<.<.<.<.<.<.<.<.<.<.<.<.s.%   ",
"  . t.<.<.<.<.<.<.<.<.<.<.<.<.<.<.<.<.<.w u..   ",
"    # <.<.<.<.<.<.<.<.<.<.<.<.<.<.<.v.g w.x.    ",
"    5.y.<.z.<.<.<.<.<.<.<.<.<.<.<.A.B.=.C.D.    ",
"      E.F.<.<.<.<.<.<.<.<.<.<.<.i.G G.H.%       ",
"        I.J.<.<.<.<.<.<.<.<.K.t S (.L..         ",
"          5.M.N.<.v.v.O.P.Q.a U R.S.5.          ",
"              . + T.U.V. .W.X.x .               ",
"                    ~ E.E.D.                    "};
