/* XPM */
static const char * debtremove_xpm[] = {
"16 16 110 2",
"  	c None",
". 	c #000000",
"+ 	c #6DB068",
"@ 	c #7CB976",
"# 	c #AADCA3",
"$ 	c #516E4D",
"% 	c #51874D",
"& 	c #93BC8D",
"* 	c #0B100B",
"= 	c #799C74",
"- 	c #63A960",
"; 	c #53734F",
"> 	c #94D18C",
", 	c #ACDDA5",
"' 	c #0F170E",
") 	c #719F6A",
"! 	c #98D291",
"~ 	c #98D290",
"{ 	c #A0D898",
"] 	c #9BD494",
"^ 	c #7AB975",
"/ 	c #0F140E",
"( 	c #4E5A4D",
"_ 	c #95D18D",
": 	c #A1D999",
"< 	c #A9DAA2",
"[ 	c #5DA658",
"} 	c #79B875",
"| 	c #9BBB98",
"1 	c #202A1F",
"2 	c #9AD691",
"3 	c #ACDCA5",
"4 	c #85C281",
"5 	c #7CB777",
"6 	c #040604",
"7 	c #97A595",
"8 	c #ADD5AA",
"9 	c #A9D0A6",
"0 	c #070807",
"a 	c #91BA8B",
"b 	c #6BB266",
"c 	c #B9E8B1",
"d 	c #60A95B",
"e 	c #8EBD82",
"f 	c #76AA73",
"g 	c #E3F3DF",
"h 	c #C8E8C5",
"i 	c #C1E4BB",
"j 	c #AFDCA8",
"k 	c #A6DD9D",
"l 	c #A9D9A4",
"m 	c #1A191A",
"n 	c #0A0A06",
"o 	c #9E9B63",
"p 	c #A8C37D",
"q 	c #B9D9A3",
"r 	c #A8D69E",
"s 	c #9FD297",
"t 	c #5F9659",
"u 	c #557153",
"v 	c #7DBB79",
"w 	c #F4D38B",
"x 	c #F4D081",
"y 	c #F1D287",
"z 	c #E4DB9D",
"A 	c #E1DBA3",
"B 	c #CEB971",
"C 	c #D7B967",
"D 	c #453F2B",
"E 	c #201D11",
"F 	c #F2C764",
"G 	c #F0C767",
"H 	c #EFC463",
"I 	c #EDBF5D",
"J 	c #EEC467",
"K 	c #F3D07D",
"L 	c #EECE89",
"M 	c #D9A94F",
"N 	c #B08E50",
"O 	c #E6BD6F",
"P 	c #010101",
"Q 	c #0D0B07",
"R 	c #F1C255",
"S 	c #EEC257",
"T 	c #EABA51",
"U 	c #DFA942",
"V 	c #D9A23C",
"W 	c #D59D38",
"X 	c #D7A13D",
"Y 	c #EBBD58",
"Z 	c #CFA952",
"` 	c #BE9745",
" .	c #AF8435",
"..	c #121313",
"+.	c #89815C",
"@.	c #BB9437",
"#.	c #D5A63E",
"$.	c #E9B644",
"%.	c #EEBC47",
"&.	c #EFBC47",
"*.	c #EBB642",
"=.	c #EAB543",
"-.	c #D7A53D",
";.	c #C19034",
">.	c #593F14",
",.	c #4E4E4E",
"'.	c #9C7327",
").	c #AE812B",
"!.	c #AF822B",
"~.	c #7F5D20",
"  . .                       . . ",
". . . . .         + @   . . .   ",
". . . . .         # $ . .       ",
"    . . . . . % & * . = -       ",
"        . . . . . . ; > ,       ",
"          ' . . . ) ! ~ { ] ^   ",
"          / . . . ( _ : { < [   ",
"      } . . . | . . 1 2 3 4     ",
"    5 6 . . 7 8 9 0 . a b c d   ",
"  e . . . f g h i j . . : k l   ",
"  m . . n o p q r s t . u v     ",
"  . . . w x y z A B C D E       ",
"  . . . F G H I J K L M . N O   ",
"  P . Q R S T U V W X Y Z `  .  ",
"  ... +.@.#.$.%.&.*.=.-.;.>.    ",
"  ,.          '.).!.~.          "};
