/* XPM */
static const char * newshop_xpm[] = {
"16 16 127 2",
"  	c None",
". 	c #58951E",
"+ 	c #5B9721",
"@ 	c #478111",
"# 	c #79C033",
"$ 	c #70C51E",
"% 	c #69BC18",
"& 	c #6AB720",
"* 	c #57951C",
"= 	c #110B00",
"- 	c #76C12C",
"; 	c #57A20F",
"> 	c #4B8E0A",
", 	c #519A0C",
"' 	c #559617",
") 	c #6DAD28",
"! 	c #53A40D",
"~ 	c #448A06",
"{ 	c #418009",
"] 	c #53630D",
"^ 	c #51181F",
"/ 	c #B13A3A",
"( 	c #9A2222",
"_ 	c #D55044",
": 	c #D89A85",
"< 	c #D5A48D",
"[ 	c #DC9788",
"} 	c #DD7369",
"| 	c #D93A3B",
"1 	c #D93131",
"2 	c #D32727",
"3 	c #D12B2B",
"4 	c #BF3434",
"5 	c #C44747",
"6 	c #F58C8C",
"7 	c #F8A2A2",
"8 	c #F49090",
"9 	c #EF807F",
"0 	c #E96565",
"a 	c #DE3434",
"b 	c #D32A2A",
"c 	c #CE2424",
"d 	c #CC2323",
"e 	c #A02424",
"f 	c #F46D6D",
"g 	c #F28585",
"h 	c #F27E7E",
"i 	c #EF7070",
"j 	c #EA5F5F",
"k 	c #E24040",
"l 	c #DD3737",
"m 	c #D73030",
"n 	c #D22929",
"o 	c #CD2323",
"p 	c #C81B1B",
"q 	c #C53E3E",
"r 	c #9F3434",
"s 	c #E84848",
"t 	c #E85E5E",
"u 	c #E85959",
"v 	c #E64B4B",
"w 	c #E23E3E",
"x 	c #DA3131",
"y 	c #D52C2C",
"z 	c #CF2626",
"A 	c #CB2121",
"B 	c #C51818",
"C 	c #D24242",
"D 	c #A33A3A",
"E 	c #E03838",
"F 	c #DC3737",
"G 	c #DE3838",
"H 	c #DC3535",
"I 	c #DB3333",
"J 	c #D83030",
"K 	c #D42C2C",
"L 	c #D12727",
"M 	c #CC2222",
"N 	c #C71D1D",
"O 	c #C21515",
"P 	c #CE3E3E",
"Q 	c #8F2222",
"R 	c #DE4141",
"S 	c #D62D2D",
"T 	c #D52D2D",
"U 	c #D32B2B",
"V 	c #D12828",
"W 	c #CE2525",
"X 	c #C71C1C",
"Y 	c #C31717",
"Z 	c #BE1010",
"` 	c #BC3636",
" .	c #C64545",
"..	c #CE2222",
"+.	c #CD2424",
"@.	c #CB2020",
"#.	c #C81D1D",
"$.	c #C51A1A",
"%.	c #BE1212",
"&.	c #9B1F1F",
"*.	c #921818",
"=.	c #CB2E2E",
"-.	c #C61818",
";.	c #C61B1B",
">.	c #C61919",
",.	c #C31818",
"'.	c #BF1212",
").	c #BD0F0F",
"!.	c #B80707",
"~.	c #B61C1C",
"{.	c #8A1A1A",
"].	c #CE4141",
"^.	c #BE0D0D",
"/.	c #BC0E0E",
"(.	c #BA0D0D",
"_.	c #B70808",
":.	c #B50101",
"<.	c #C33535",
"[.	c #801212",
"}.	c #4F0303",
"|.	c #AD3C3C",
"1.	c #B92F2F",
"2.	c #B21515",
"3.	c #B00E0E",
"4.	c #B31E1E",
"5.	c #B03A3A",
"6.	c #580606",
"                                ",
"    . + @                       ",
"  # $ % & *     =               ",
"    - ; > , '                   ",
"      ) ! ~ { ] ^ / / (         ",
"      _ : < [ } | 1 2 3 4       ",
"    5 6 7 8 9 0 a 1 b c d e     ",
"    f g h i j k l m n o p q     ",
"  r s t u v w l x y z A B C     ",
"  D E F G H I J K L M N O P     ",
"  Q R S y T U V W A X Y Z `     ",
"     ...o +.M @.#.$.O %.%.&.    ",
"    *.=.-.;.>.,.O '.).!.~.      ",
"      {.].^././.(._.:.<.[.      ",
"        }.|.1.2.3.4.5.6.        ",
"                                "};
