/* XPM */
static const char * noteicon_xpm[] = {
"16 16 87 1",
" 	c None",
".	c #484D4D",
"+	c #4F4E4D",
"@	c #53524E",
"#	c #D0423D",
"$	c #743E41",
"%	c #C0AC6E",
"&	c #E3C666",
"*	c #E2C250",
"=	c #E4BE3A",
"-	c #EEC320",
";	c #835049",
">	c #A74439",
",	c #C08823",
"'	c #EAB014",
")	c #E3A71A",
"!	c #565550",
"~	c #E8CE7C",
"{	c #FFDC6B",
"]	c #FED850",
"^	c #FFD336",
"/	c #DDB627",
"(	c #B69821",
"_	c #FFCA06",
":	c #FFC109",
"<	c #FCBB0D",
"[	c #E8AA18",
"}	c #615E54",
"|	c #F4D780",
"1	c #FFD850",
"2	c #FFD237",
"3	c #FFCE1D",
"4	c #FFCB05",
"5	c #FEC507",
"6	c #FDBF0B",
"7	c #FCBB0E",
"8	c #6A6658",
"9	c #FDE084",
"0	c #FFCE1C",
"a	c #FEC906",
"b	c #FDC507",
"c	c #FDBF0A",
"d	c #E1A61A",
"e	c #78725E",
"f	c #FFE486",
"g	c #E7A918",
"h	c #615945",
"i	c #877E64",
"j	c #FFC906",
"k	c #EFAE16",
"l	c #5F5746",
"m	c #817962",
"n	c #F8B313",
"o	c #665B44",
"p	c #7B745F",
"q	c #FFE285",
"r	c #FFB710",
"s	c #7F6A3C",
"t	c #4C4C4C",
"u	c #F5D981",
"v	c #FFB711",
"w	c #B6892A",
"x	c #46494F",
"y	c #E9CF7C",
"z	c #FFDD6B",
"A	c #FFD950",
"B	c #FFD337",
"C	c #FFCF1C",
"D	c #FFC606",
"E	c #F5B710",
"F	c #DBA21C",
"G	c #7E693C",
"H	c #4B4B4D",
"I	c #C9B572",
"J	c #E4C666",
"K	c #E5C550",
"L	c #DAB327",
"M	c #CAA51B",
"N	c #B39224",
"O	c #887336",
"P	c #645C44",
"Q	c #504F4C",
"R	c #5A564D",
"S	c #55534C",
"T	c #494A4E",
"U	c #48494E",
"V	c #47494E",
"                ",
"         .      ",
"   +@    #$     ",
"   %&*=-;>,')   ",
"  !~{]^/(_:<[   ",
"  }|{1234567)   ",
"  89{]20abc<d   ",
"  ef{]20abc<gh  ",
"  if{123j567kl  ",
"  mf{123j567no  ",
"  pq{]20abc<rst ",
"   u{123j567vwx ",
"   yzABC_D:EFGH ",
"   IJK=LMNOPQ   ",
"     RSTUVH     ",
"                "};
