/* XPM */
static const char * objectlend_xpm[] = {
"16 16 96 2",
"  	c None",
". 	c #386E04",
"+ 	c #59961E",
"@ 	c #5B9822",
"# 	c #4C8615",
"$ 	c #7AC134",
"% 	c #70C51D",
"& 	c #69BC18",
"* 	c #6CBA20",
"= 	c #1A2D0A",
"- 	c #130C00",
"; 	c #76C12C",
"> 	c #57A20F",
", 	c #4D920A",
"' 	c #0F1D02",
") 	c #020300",
"! 	c #060500",
"~ 	c #417607",
"{ 	c #6FAB28",
"] 	c #56A80E",
"^ 	c #101F02",
"/ 	c #000000",
"( 	c #010300",
"_ 	c #280607",
": 	c #B03838",
"< 	c #B13B3B",
"[ 	c #8F1919",
"} 	c #B1473A",
"| 	c #B88771",
"1 	c #231D18",
"2 	c #020202",
"3 	c #821D1D",
"4 	c #DF2A2A",
"5 	c #D22C2C",
"6 	c #BF3535",
"7 	c #541111",
"8 	c #CF2424",
"9 	c #CC2323",
"0 	c #9B2020",
"a 	c #4D0D0D",
"b 	c #CF1C1C",
"c 	c #C33D3D",
"d 	c #4D0C0C",
"e 	c #CC1919",
"f 	c #D14040",
"g 	c #510D0D",
"h 	c #C81D1D",
"i 	c #C21515",
"j 	c #CD3D3D",
"k 	c #741919",
"l 	c #BF3838",
"m 	c #B62626",
"n 	c #BB2727",
"o 	c #250808",
"p 	c #7A1313",
"q 	c #D21E1E",
"r 	c #C31717",
"s 	c #BE1010",
"t 	c #BB3535",
"u 	c #C94646",
"v 	c #CF2222",
"w 	c #D32525",
"x 	c #2A0707",
"y 	c #781111",
"z 	c #C71A1A",
"A 	c #C11515",
"B 	c #BE1212",
"C 	c #961C1C",
"D 	c #8C1313",
"E 	c #CB2E2E",
"F 	c #CB1818",
"G 	c #280505",
"H 	c #050000",
"I 	c #941212",
"J 	c #C81616",
"K 	c #BF1212",
"L 	c #BD0F0F",
"M 	c #B80707",
"N 	c #B41C1C",
"O 	c #8A1919",
"P 	c #D64343",
"Q 	c #250101",
"R 	c #8E0909",
"S 	c #BE0F0F",
"T 	c #BA0D0D",
"U 	c #B70808",
"V 	c #B40101",
"W 	c #C83737",
"X 	c #7D0E0E",
"Y 	c #510202",
"Z 	c #B62D2D",
"` 	c #B21616",
" .	c #B00E0E",
"..	c #B31E1E",
"+.	c #AC3636",
"@.	c #590404",
"                                ",
"  . + @ #                       ",
"  $ % & * =     -               ",
"    ; > , ' )   !               ",
"    ~ { ] ^ / ( _ : < [         ",
"      } | 1 / / 2 3 4 5 6       ",
"/ / / / / / / / / / 7 8 9 0     ",
"/ / / / / / / / / / / a b c     ",
"/ / / / / / / / / / / d e f     ",
"/ / / / / / / / / / g h i j     ",
"  k l m n o / / / p q r s t     ",
"    u v w x / / y z A B B C     ",
"    D E F G H I J K L M N       ",
"      O P Q R S T U V W X       ",
"        Y : Z `  ...+.@.        ",
"                                "};
