/* XPM */
static const char * oldconv_xpm[] = {
"16 16 21 1",
" 	c None",
".	c #00FF00",
"+	c #FF0000",
"@	c #000000",
"#	c #E7E773",
"$	c #F7F7D6",
"%	c #E7E700",
"&	c #6B6B00",
"*	c #ADAD00",
"=	c #D6D600",
"-	c #84FF84",
";	c #9CA500",
">	c #949400",
",	c #F7F794",
"'	c #BD8C00",
")	c #5AFF5A",
"!	c #39DE00",
"~	c #00AD00",
"{	c #F72929",
"]	c #4A6B00",
"^	c #FF00FF",
"                ",
"..  ++++++++++  ",
".@.          +  ",
"@@.          +  ",
".@.   #$    +++ ",
".@.  %&*%    +  ",
".@. #&*&*=      ",
"..- %;*%%>,     ",
"    =%*%=*$...  ",
"    =='=%&.....)",
"    ,;%*'!~@@...",
" {  +&%*]....@..",
" +   +^$ ....@..",
" +    +  ...@...",
" +++++++ ).@....",
"                "};
