/* XPM */
static const char * edit_find_xpm[] = {
"20 20 142 2",
"  	c None",
". 	c #4974C3",
"+ 	c #4E78C6",
"@ 	c #4D78C6",
"# 	c #537CC8",
"$ 	c #4E79C4",
"% 	c #446DB9",
"& 	c #667DC9",
"* 	c #606BAB",
"= 	c #5E6296",
"- 	c #626594",
"; 	c #6C70A2",
"> 	c #828DC7",
", 	c #8199D8",
"' 	c #436FB7",
") 	c #5170B9",
"! 	c #6770B9",
"~ 	c #3D4977",
"{ 	c #304063",
"] 	c #253147",
"^ 	c #1B2537",
"/ 	c #222F49",
"( 	c #3B496B",
"_ 	c #697199",
": 	c #A3ACE3",
"< 	c #426CB1",
"[ 	c #3B62A9",
"} 	c #646FB7",
"| 	c #2B406A",
"1 	c #303D51",
"2 	c #C5C6C6",
"3 	c #CBCBCC",
"4 	c #27354D",
"5 	c #606993",
"6 	c #8491CF",
"7 	c #2E5CA1",
"8 	c #5368B0",
"9 	c #38497B",
"0 	c #334155",
"a 	c #FAF9F9",
"b 	c #FFFFFF",
"c 	c #F6F5F5",
"d 	c #22334D",
"e 	c #8285BC",
"f 	c #4B6BAE",
"g 	c #345899",
"h 	c #4B5C9C",
"i 	c #334669",
"j 	c #FCFCFC",
"k 	c #F2F2F2",
"l 	c #404A59",
"m 	c #475580",
"n 	c #737EC2",
"o 	c #204D8C",
"p 	c #365595",
"q 	c #4A5895",
"r 	c #3B4A69",
"s 	c #2E415F",
"t 	c #7D81C8",
"u 	c #1F4A85",
"v 	c #32518E",
"w 	c #4F599B",
"x 	c #455273",
"y 	c #2A405A",
"z 	c #7A7CC7",
"A 	c #1C457D",
"B 	c #2F4B87",
"C 	c #4C579F",
"D 	c #4C5989",
"E 	c #3B4C70",
"F 	c #646BB6",
"G 	c #1D4377",
"H 	c #264579",
"I 	c #4957A3",
"J 	c #505A9C",
"K 	c #516175",
"L 	c #485688",
"M 	c #495A9B",
"N 	c #183C6E",
"O 	c #3A4F8F",
"P 	c #5C5FBD",
"Q 	c #5E66A6",
"R 	c #3E5375",
"S 	c #575FA5",
"T 	c #264277",
"U 	c #1F4072",
"V 	c #4955A4",
"W 	c #6062C1",
"X 	c #5F67AE",
"Y 	c #3F5578",
"Z 	c #4D5897",
"` 	c #394F90",
" .	c #2E3B50",
"..	c #224176",
"+.	c #3E4F96",
"@.	c #5D60B9",
"#.	c #525CA6",
"$.	c #4C5D97",
"%.	c #425784",
"&.	c #3E547D",
"*.	c #445487",
"=.	c #4D559A",
"-.	c #314989",
";.	c #374A65",
">.	c #8D877F",
",.	c #2E2B27",
"'.	c #1D3F71",
").	c #26437B",
"!.	c #3F4D92",
"~.	c #4D559F",
"{.	c #5256A3",
"].	c #475298",
"^.	c #384A8B",
"/.	c #203E70",
"(.	c #2B3F5B",
"_.	c #434F5A",
":.	c #656058",
"<.	c #8F8A80",
"[.	c #211D1C",
"}.	c #183C6C",
"|.	c #193C6D",
"1.	c #173B6C",
"2.	c #193B6C",
"3.	c #163661",
"4.	c #140E08",
"5.	c #272929",
"6.	c #393F44",
"7.	c #676157",
"8.	c #78726A",
"9.	c #201C19",
"0.	c #100D0B",
"a.	c #1D1B19",
"b.	c #303030",
"c.	c #6A655C",
"d.	c #5A554F",
"e.	c #0C0B09",
"f.	c #171512",
"g.	c #2C2925",
"h.	c #403C36",
"i.	c #221F1C",
"j.	c #171411",
"k.	c #181511",
"                                        ",
"            . + @ # $                   ",
"        % & * = - ; > , '               ",
"      ) ! ~ { ] ^ / ( _ : <             ",
"    [ } | 1     2 3   4 5 6 7           ",
"    8 9 0       a b c   d e f           ",
"  g h i           j k   l m n o         ",
"  p q r                   s t u         ",
"  v w x                   y z A         ",
"  B C D                   E F G         ",
"  H I J                 K L M N         ",
"    O P Q               R S T           ",
"    U V W X           Y Z `  .          ",
"      ..+.@.#.$.%.&.*.=.-.;.>.,.        ",
"        '.).!.~.{.].^./.(._.:.<.[.      ",
"            }.|.1.2.3.  4.5.6.7.8.9.    ",
"                          0.a.b.c.d.    ",
"                            e.f.g.h.i.  ",
"                                j.k.    ",
"                                        "};
