/* XPM */
static const char * objectgetback20_xpm[] = {
"20 20 145 2",
"  	c None",
". 	c #59951D",
"+ 	c #63A820",
"@ 	c #66AF1F",
"# 	c #63AB1D",
"$ 	c #5DA01B",
"% 	c #65A428",
"& 	c #72BF27",
"* 	c #65B716",
"= 	c #63B315",
"- 	c #65B518",
"; 	c #5DA618",
"> 	c #56931A",
", 	c #231500",
"' 	c #000000",
") 	c #79BE36",
"! 	c #6FC020",
"~ 	c #549D0E",
"{ 	c #488B09",
"] 	c #4B9009",
"^ 	c #549B10",
"/ 	c #4E8815",
"( 	c #020200",
"_ 	c #5B941E",
": 	c #6EB527",
"< 	c #59A80F",
"[ 	c #4E950A",
"} 	c #408104",
"| 	c #498611",
"1 	c #273703",
"2 	c #812C2C",
"3 	c #7F0A0A",
"4 	c #842718",
"5 	c #936C33",
"6 	c #7B933B",
"7 	c #7E9A43",
"8 	c #79933E",
"9 	c #4C4B20",
"0 	c #010001",
"a 	c #961C1C",
"b 	c #D84A4A",
"c 	c #A43030",
"d 	c #E0595B",
"e 	c #FA686F",
"f 	c #FFA0AB",
"g 	c #F7A1A7",
"h 	c #875059",
"i 	c #0E060B",
"j 	c #380A0A",
"k 	c #490808",
"l 	c #4D1313",
"m 	c #381212",
"n 	c #E55555",
"o 	c #F59999",
"p 	c #FB9A9A",
"q 	c #633A3A",
"r 	c #B63737",
"s 	c #F27272",
"t 	c #F78787",
"u 	c #582E2E",
"v 	c #C33F3F",
"w 	c #E64646",
"x 	c #EF6969",
"y 	c #552121",
"z 	c #C23C3C",
"A 	c #DF3636",
"B 	c #E04040",
"C 	c #E54444",
"D 	c #5A1616",
"E 	c #BE3939",
"F 	c #DA3333",
"G 	c #D93131",
"H 	c #DA3030",
"I 	c #D33030",
"J 	c #6B1818",
"K 	c #060202",
"L 	c #350707",
"M 	c #470808",
"N 	c #450707",
"O 	c #460A0A",
"P 	c #2F1111",
"Q 	c #AA2C2C",
"R 	c #D93535",
"S 	c #D32B2B",
"T 	c #D32A2A",
"U 	c #D52A2A",
"V 	c #7B1717",
"W 	c #8B1111",
"X 	c #BA1414",
"Y 	c #B61010",
"Z 	c #AF1515",
"` 	c #B84B4B",
" .	c #C72929",
"..	c #CE2323",
"+.	c #CC2323",
"@.	c #CD2323",
"#.	c #CC2222",
"$.	c #CE2121",
"%.	c #7D1212",
"&.	c #8E0E0E",
"*.	c #BE1111",
"=.	c #BB0E0E",
"-.	c #B42828",
";.	c #811212",
">.	c #BB3E3E",
",.	c #C82121",
"'.	c #C71B1B",
").	c #C61A1A",
"!.	c #C81919",
"~.	c #9D1111",
"{.	c #050000",
"].	c #8B0A0A",
"^.	c #BA0A0A",
"/.	c #B60E0E",
"(.	c #A93A3A",
"_.	c #7B1010",
":.	c #B93D3D",
"<.	c #C62222",
"[.	c #C31616",
"}.	c #C01111",
"|.	c #BF1212",
"1.	c #BF1111",
"2.	c #BF1010",
"3.	c #8C0909",
"4.	c #040000",
"5.	c #870505",
"6.	c #BB1414",
"7.	c #A93737",
"8.	c #660000",
"9.	c #892929",
"0.	c #B72727",
"a.	c #C92B2B",
"b.	c #C21B1B",
"c.	c #BB0B0B",
"d.	c #B70505",
"e.	c #BB0C0C",
"f.	c #911E1E",
"g.	c #9F2121",
"h.	c #8A2626",
"i.	c #6F1010",
"j.	c #961B1B",
"k.	c #A42525",
"l.	c #A62727",
"m.	c #A02222",
"n.	c #841414",
"                                        ",
"                                        ",
"  . + @ # $                             ",
"  % & * = - ; >     ,   '               ",
"    ) ! ~ { ] ^ /   ( ' '               ",
"      _ : < [ } | 1 ' ' ' 2 3           ",
"      4 5 6 7 8 9 0 ' ' ' a b c         ",
"      d e f g h i ' ' ' ' j k l m   ' ' ",
"      n o p q ' ' ' ' ' ' ' ' ' ' ' ' ' ",
"    r s t u ' ' ' ' ' ' ' ' ' ' ' ' ' ' ",
"    v w x y ' ' ' ' ' ' ' ' ' ' ' ' ' ' ",
"    z A B C D ' ' ' ' ' ' ' ' ' ' ' ' ' ",
"    E F G H I J K ' ' ' ' L M N O P   ' ",
"    Q R S T U T V ' ' ' ' W X Y Z       ",
"    `  ...+.@.#.$.%.' ' ' &.*.=.-.;.    ",
"      >.,.'.'.'.).!.~.{.' ].^./.(.      ",
"      _.:.<.[.}.|.1.2.3.4.5.6.7.8.      ",
"          9.0.a.b.c.d.e.f.g.h.          ",
"              i.j.k.l.m.n.              ",
"                                        "};
