/* XPM */
static const char * objectgiven20_xpm[] = {
"20 20 249 2",
"  	c None",
". 	c #4E4E4E",
"+ 	c #535352",
"@ 	c #8D6723",
"# 	c #A17627",
"$ 	c #A57A28",
"% 	c #856120",
"& 	c #57595B",
"* 	c #8F9192",
"= 	c #AFB2B8",
"- 	c #9C7429",
"; 	c #D19D37",
"> 	c #E0AA3C",
", 	c #EDB841",
"' 	c #F3C044",
") 	c #F2BD42",
"! 	c #EFB841",
"~ 	c #DDA73C",
"{ 	c #B0822E",
"] 	c #5E6061",
"^ 	c #A6A7A8",
"/ 	c #CCD1DC",
"( 	c #C4A85E",
"_ 	c #E4B246",
": 	c #EEBC4C",
"< 	c #EDBE4D",
"[ 	c #EDBC4C",
"} 	c #E9B646",
"| 	c #E2AD41",
"1 	c #DDA63B",
"2 	c #DAA137",
"3 	c #E5B042",
"4 	c #EFBB49",
"5 	c #DBA93F",
"6 	c #AC822F",
"7 	c #986F24",
"8 	c #80591A",
"9 	c #67686A",
"0 	c #B2B3B4",
"a 	c #CED3DE",
"b 	c #E1C178",
"c 	c #F1C45C",
"d 	c #F0C35C",
"e 	c #EEC15A",
"f 	c #DBA742",
"g 	c #DBA541",
"h 	c #DCA742",
"i 	c #DFAC47",
"j 	c #E2B14D",
"k 	c #DDAB4B",
"l 	c #EAC477",
"m 	c #F3D286",
"n 	c #F4D07E",
"o 	c #EAC36E",
"p 	c #CB9F4A",
"q 	c #6F7072",
"r 	c #BDBEBF",
"s 	c #D4D8E2",
"t 	c #E2C480",
"u 	c #F2C766",
"v 	c #F0C667",
"w 	c #F1C868",
"x 	c #EFC665",
"y 	c #F1C564",
"z 	c #F1C96C",
"A 	c #F5D893",
"B 	c #E3BD71",
"C 	c #D8A648",
"D 	c #DAAB54",
"E 	c #DAAC5B",
"F 	c #E1B86C",
"G 	c #DDB05D",
"H 	c #77787B",
"I 	c #C8C8C9",
"J 	c #D8DCE3",
"K 	c #E5D2A1",
"L 	c #F5D58B",
"M 	c #F2CF7E",
"N 	c #F3CE79",
"O 	c #EED084",
"P 	c #F3D79D",
"Q 	c #DDC497",
"R 	c #E9C180",
"S 	c #DDA95C",
"T 	c #E7B86C",
"U 	c #F4CE8A",
"V 	c #DEB36F",
"W 	c #694116",
"X 	c #8F9091",
"Y 	c #C0C2C1",
"Z 	c #CEC6C7",
"` 	c #CE9A69",
" .	c #DFB67C",
"..	c #E3C28F",
"+.	c #EDC79D",
"@.	c #AA9059",
"#.	c #B0653A",
"$.	c #C7584E",
"%.	c #DD403D",
"&.	c #D22927",
"*.	c #CE2726",
"=.	c #D44240",
"-.	c #A8282E",
";.	c #919696",
">.	c #9B7771",
",.	c #CE655F",
"'.	c #EA746E",
").	c #F09D92",
"!.	c #E29886",
"~.	c #E0877D",
"{.	c #F7918D",
"].	c #EF7874",
"^.	c #DF2E2F",
"/.	c #DA3131",
"(.	c #D62C2D",
"_.	c #D12728",
":.	c #CC1F1F",
"<.	c #CE2B2A",
"[.	c #B33838",
"}.	c #E65454",
"|.	c #F69899",
"1.	c #F89899",
"2.	c #F68D8E",
"3.	c #F27F80",
"4.	c #ED7373",
"5.	c #E54E4F",
"6.	c #DF3737",
"7.	c #DA3333",
"8.	c #D62E2E",
"9.	c #D12828",
"0.	c #CD2323",
"a.	c #C91D1D",
"b.	c #BE2727",
"c.	c #9E3333",
"d.	c #B63737",
"e.	c #F27272",
"f.	c #F18484",
"g.	c #F17C7C",
"h.	c #EF7171",
"i.	c #EC6565",
"j.	c #E85656",
"k.	c #E13B3B",
"l.	c #DD3737",
"m.	c #D83232",
"n.	c #D52D2D",
"o.	c #D02727",
"p.	c #CC2222",
"q.	c #C42424",
"r.	c #C64D4D",
"s.	c #C33F3F",
"t.	c #E64646",
"u.	c #EA6767",
"v.	c #E95E5E",
"w.	c #E75454",
"x.	c #E54747",
"y.	c #E13C3C",
"z.	c #DA3232",
"A.	c #D72F2F",
"B.	c #D32A2A",
"C.	c #CE2525",
"D.	c #CB2020",
"E.	c #C61A1A",
"F.	c #C72525",
"G.	c #CB4A4A",
"H.	c #C23C3C",
"I.	c #DF3636",
"J.	c #E04040",
"K.	c #E14141",
"L.	c #DF3939",
"M.	c #DE3636",
"N.	c #DB3535",
"O.	c #D93232",
"P.	c #D72E2E",
"Q.	c #D02626",
"R.	c #CB2222",
"S.	c #C81E1E",
"T.	c #C51919",
"U.	c #C82424",
"V.	c #9E2828",
"W.	c #BE3939",
"X.	c #D93131",
"Y.	c #D93030",
"Z.	c #D83030",
"`.	c #D52C2C",
" +	c #D22929",
".+	c #CF2626",
"++	c #C11515",
"@+	c #C01E1E",
"#+	c #AA2C2C",
"$+	c #D93535",
"%+	c #D32B2B",
"&+	c #CC2323",
"*+	c #CA2020",
"=+	c #C81D1D",
"-+	c #C41919",
";+	c #BE1010",
">+	c #B61616",
",+	c #AF4444",
"'+	c #B84B4B",
")+	c #C72929",
"!+	c #CE2323",
"~+	c #CC2121",
"{+	c #CA1F1F",
"]+	c #C81C1C",
"^+	c #C31717",
"/+	c #C01313",
"(+	c #BD1111",
"_+	c #BB0E0E",
":+	c #B42828",
"<+	c #811212",
"[+	c #BB3E3E",
"}+	c #C82121",
"|+	c #C71B1B",
"1+	c #C21616",
"2+	c #C11414",
"3+	c #BF1212",
"4+	c #BC0E0E",
"5+	c #B90A0A",
"6+	c #B60E0E",
"7+	c #A93A3A",
"8+	c #7B1010",
"9+	c #B93D3D",
"0+	c #C62222",
"a+	c #C31616",
"b+	c #C01111",
"c+	c #BF1111",
"d+	c #BD0F0F",
"e+	c #BB0D0D",
"f+	c #B80909",
"g+	c #B80707",
"h+	c #BB1414",
"i+	c #A93737",
"j+	c #660000",
"k+	c #892929",
"l+	c #B72727",
"m+	c #C92B2B",
"n+	c #C21B1B",
"o+	c #BB0B0B",
"p+	c #B70505",
"q+	c #B90C0C",
"r+	c #C21F1F",
"s+	c #B42121",
"t+	c #8A2626",
"u+	c #6F1010",
"v+	c #961B1B",
"w+	c #A42525",
"x+	c #A62727",
"y+	c #A02222",
"z+	c #811414",
"  . +             @ # $ %               ",
"  & * =     - ; > , ' ) ! ~ {           ",
"  ] ^ / ( _ : < [ } | 1 2 3 4 5 6 7 8   ",
"  9 0 a b c d e f g h i j k l m n o p   ",
"  q r s t u v w x y z n A B C D E F G   ",
"  H I J K L M N O P Q R S T U V W       ",
"  X Y Z `  ...+.@.#.$.%.&.*.=.-.        ",
"  ;.>.,.'.).!.~.{.].^./.(._.:.<.[.      ",
"      }.|.1.2.3.4.5.6.7.8.9.0.a.b.c.    ",
"    d.e.f.g.h.i.j.k.l.m.n.o.p.a.q.r.    ",
"    s.t.u.v.w.x.y.l.z.A.B.C.D.E.F.G.    ",
"    H.I.J.K.L.M.N.O.P.B.Q.R.S.T.U.V.    ",
"    W.7.X.Y.X.Z.8.`. +.+p.S.T.++@+      ",
"    #+$+%+B.B. +9..+&+*+=+-+++;+>+,+    ",
"    '+)+!+&+0.p.~+{+]+E.^+/+(+_+:+<+    ",
"      [+}+|+|+|+E.-+1+2+3+4+5+6+7+      ",
"      8+9+0+a+b+3+c+d+e+f+g+h+i+j+      ",
"          k+l+m+n+o+p+q+r+s+t+          ",
"              u+v+w+x+y+z+              ",
"                                        "};
