/* XPM */
static const char * removefund20_xpm[] = {
"20 20 154 2",
"  	c None",
". 	c #000000",
"+ 	c #050704",
"@ 	c #6AA051",
"# 	c #A8FF7E",
"$ 	c #90E968",
"% 	c #88E25D",
"& 	c #94DF72",
"* 	c #C1DFB6",
"= 	c #C8ECBE",
"- 	c #566552",
"; 	c #0E0E10",
"> 	c #61715E",
", 	c #CAD4C7",
"' 	c #080C06",
") 	c #283A22",
"! 	c #9BDE88",
"~ 	c #CDF9BC",
"{ 	c #DFEAD8",
"] 	c #F8F6F9",
"^ 	c #888F87",
"/ 	c #040803",
"( 	c #7CC658",
"_ 	c #7BC857",
": 	c #82E055",
"< 	c #8FC983",
"[ 	c #E7E7E6",
"} 	c #E6E5E6",
"| 	c #070707",
"1 	c #89D865",
"2 	c #9FFF70",
"3 	c #88ED57",
"4 	c #68D032",
"5 	c #A0CF92",
"6 	c #FFFFFF",
"7 	c #9CEF78",
"8 	c #0C1A07",
"9 	c #060C03",
"0 	c #010101",
"a 	c #010001",
"b 	c #4DA42A",
"c 	c #6CDB40",
"d 	c #6EDA43",
"e 	c #6DD541",
"f 	c #4FBD28",
"g 	c #B5DAAF",
"h 	c #77CE5A",
"i 	c #6AD836",
"j 	c #63CE32",
"k 	c #101A05",
"l 	c #030702",
"m 	c #16720C",
"n 	c #0BA404",
"o 	c #009600",
"p 	c #0FA006",
"q 	c #279B1A",
"r 	c #88C44B",
"s 	c #9DC539",
"t 	c #A8C22F",
"u 	c #8C9D1E",
"v 	c #1D3B12",
"w 	c #67E43E",
"x 	c #42C028",
"y 	c #32B41B",
"z 	c #1CA80F",
"A 	c #0A9A04",
"B 	c #2DA317",
"C 	c #0D7F01",
"D 	c #D5E7D5",
"E 	c #E5C463",
"F 	c #E8DE6E",
"G 	c #EDDC65",
"H 	c #EFD352",
"I 	c #1C1400",
"J 	c #060A04",
"K 	c #599B33",
"L 	c #94FA5B",
"M 	c #72D842",
"N 	c #5DC82F",
"O 	c #41B321",
"P 	c #0E8807",
"Q 	c #006900",
"R 	c #DAE9DA",
"S 	c #ECD798",
"T 	c #F0E179",
"U 	c #EDC631",
"V 	c #050604",
"W 	c #998E9B",
"X 	c #46A226",
"Y 	c #7CDF43",
"Z 	c #249B13",
"` 	c #078104",
" .	c #007100",
"..	c #AACCAB",
"+.	c #FCF8EC",
"@.	c #F7E986",
"#.	c #060604",
"$.	c #797B25",
"%.	c #B1A4AD",
"&.	c #36B21F",
"*.	c #189A0D",
"=.	c #007500",
"-.	c #138411",
";.	c #7BB477",
">.	c #26262A",
",.	c #060400",
"'.	c #745000",
").	c #E3C17A",
"!.	c #FDECB8",
"~.	c #D5C177",
"{.	c #6C851E",
"].	c #0F0B00",
"^.	c #035F00",
"/.	c #499F48",
"(.	c #B7D1AE",
"_.	c #211600",
":.	c #BB860E",
"<.	c #DDC248",
"[.	c #E5CD4D",
"}.	c #E3C33C",
"|.	c #E1BB2C",
"1.	c #A88D1A",
"2.	c #181405",
"3.	c #010100",
"4.	c #B89417",
"5.	c #C2941F",
"6.	c #F2E67B",
"7.	c #F2E774",
"8.	c #ECDB62",
"9.	c #E9D24E",
"0.	c #F6D545",
"a.	c #372F0E",
"b.	c #DDC03E",
"c.	c #DCB82B",
"d.	c #D4AB20",
"e.	c #C8A024",
"f.	c #DDB626",
"g.	c #BB8F18",
"h.	c #A97B13",
"i.	c #EACE4B",
"j.	c #D4B333",
"k.	c #CDA216",
"l.	c #BF993F",
"m.	c #D0A633",
"n.	c #B88B1C",
"o.	c #B88E34",
"p.	c #C99E1F",
"q.	c #A67508",
"r.	c #B78A17",
"s.	c #CEAE69",
"t.	c #5C4C28",
"u.	c #C39417",
"v.	c #BC963A",
"w.	c #CEB380",
"    . .                           . . . ",
"  . . .                           . . . ",
". . . . . + @ # $ % & * = -   . ; > ,   ",
"  . . . . . ' ) ! ~ { ] ^ / . ( _ : <   ",
"    . . . . . . . [ } . | . 1 2 3 4 5   ",
"    6 7 8 9 . . 0 . . a . b c d e f g   ",
"      h i j k . . . . l m n o o p q     ",
"      r s t u . . . . v w x y z A B C D ",
"    E F G H I . 0 . . J K L M N O P Q R ",
"    S T U V . . . W . . . X Y Z `  ...  ",
"    +.@.#.. . . $.%.&.. . . *.=.-.;.    ",
"      >.. . ,.'.).!.~.{.].. ^./.(.      ",
"    . . . . _.:.<.[.}.|.1.2..           ",
"    . . 3.. 4.5.6.7.8.9.0.a.. .         ",
"  . . . . b.c.d.e.b.f.g.h.  . .         ",
"  . . . . i.j.k.l.m.n.o.      . .       ",
"  . . . . p.q.r.s.            . .       ",
"  . . . t.u.v.w.                        ",
"    . .                                 ",
"                                        "};
